PCBNEW-LibModule-V1  2023-07-18 19:54:31
# encoding utf-8
Units mm
$INDEX
ECS160205PVX
$EndINDEX
$MODULE ECS160205PVX
Po 0 0 0 15 64b6dfe7 00000000 ~~
Li ECS160205PVX
Cd ECS-160-20-5PVX-1
Kw Crystal or Oscillator
Sc 0
At SMD
AR 
Op 0 0 0
T0 -0.000 -0 1.27 1.27 0 0.254 N V 21 N "Y**"
T1 -0.000 -0 1.27 1.27 0 0.254 N I 21 N "ECS160205PVX"
DS -6.2 2.4 6.2 2.4 0.1 24
DS 6.2 2.4 6.2 -2.4 0.1 24
DS 6.2 -2.4 -6.2 -2.4 0.1 24
DS -6.2 -2.4 -6.2 2.4 0.1 24
DS -8.5 -3.4 8.5 -3.4 0.1 24
DS 8.5 -3.4 8.5 3.4 0.1 24
DS 8.5 3.4 -8.5 3.4 0.1 24
DS -8.5 3.4 -8.5 -3.4 0.1 24
DS -6.2 -1.5 -6.2 -2.4 0.2 21
DS -6.2 -2.4 6.2 -2.4 0.2 21
DS 6.2 -2.4 6.2 -1.5 0.2 21
DS 6.2 1.5 6.2 2.4 0.2 21
DS 6.2 2.4 -6.2 2.4 0.2 21
DS -6.2 2.4 -6.2 1.5 0.2 21
DS -8.1 -0 -8.1 -0 0.2 21
DS -8 -0 -8 -0 0.2 21
DS -8.1 -0 -8 -0 0.2 21
DA -8.05 -0 -8.100 -0 -1800 0.2 21
DA -8.05 -0 -8.000 -0 -1800 0.2 21
$PAD
Po -4.750 -0
Sh "1" R 2.000 5.500 0 0 900
At SMD N 00888000
Ne 0 ""
$EndPAD
$PAD
Po 4.750 -0
Sh "2" R 2.000 5.500 0 0 900
At SMD N 00888000
Ne 0 ""
$EndPAD
$EndMODULE ECS160205PVX
$EndLIBRARY
