<?xml version="1.0" encoding="utf-8"?>
<!--/345121/1129843/2.50/2/2/Varistor/-->
<!DOCTYPE curve SYSTEM "eagle.dtd">
<eagle version="7.7.0">
<drawing>
<settings>
<setting alwaysvectorfont="no"/>
<setting verticaltext="up"/>
</settings>
<grid distance="0.1" unitdist="inch" unit="inch" style="lines" multiple="1" display="no" altdistance="0.01" altunitdist="inch" altunit="inch"/>
<layers>
<layer number="1" name="Top" color="4" fill="1" visible="yes" active="yes"/>
<layer number="16" name="Bottom" color="1" fill="1" visible="yes" active="yes"/>
<layer number="17" name="Pads" color="2" fill="1" visible="yes" active="yes"/>
<layer number="18" name="Vias" color="2" fill="1" visible="yes" active="yes"/>
<layer number="19" name="Unrouted" color="6" fill="1" visible="yes" active="yes"/>
<layer number="20" name="Dimension" color="15" fill="1" visible="yes" active="yes"/>
<layer number="21" name="tPlace" color="7" fill="1" visible="yes" active="yes"/>
<layer number="22" name="bPlace" color="7" fill="1" visible="yes" active="yes"/>
<layer number="23" name="tOrigins" color="15" fill="1" visible="yes" active="yes"/>
<layer number="24" name="bOrigins" color="15" fill="1" visible="yes" active="yes"/>
<layer number="25" name="tNames" color="7" fill="1" visible="yes" active="yes"/>
<layer number="26" name="bNames" color="7" fill="1" visible="yes" active="yes"/>
<layer number="27" name="tValues" color="7" fill="1" visible="yes" active="yes"/>
<layer number="28" name="bValues" color="7" fill="1" visible="yes" active="yes"/>
<layer number="29" name="tStop" color="7" fill="3" visible="no" active="yes"/>
<layer number="30" name="bStop" color="7" fill="6" visible="no" active="yes"/>
<layer number="31" name="tCream" color="7" fill="4" visible="no" active="yes"/>
<layer number="32" name="bCream" color="7" fill="5" visible="no" active="yes"/>
<layer number="33" name="tFinish" color="6" fill="3" visible="no" active="yes"/>
<layer number="34" name="bFinish" color="6" fill="6" visible="no" active="yes"/>
<layer number="35" name="tGlue" color="7" fill="4" visible="no" active="yes"/>
<layer number="36" name="bGlue" color="7" fill="5" visible="no" active="yes"/>
<layer number="37" name="tTest" color="7" fill="1" visible="no" active="yes"/>
<layer number="38" name="bTest" color="7" fill="1" visible="no" active="yes"/>
<layer number="39" name="tKeepout" color="4" fill="11" visible="yes" active="yes"/>
<layer number="40" name="bKeepout" color="1" fill="11" visible="yes" active="yes"/>
<layer number="41" name="tRestrict" color="4" fill="10" visible="yes" active="yes"/>
<layer number="42" name="bRestrict" color="1" fill="10" visible="yes" active="yes"/>
<layer number="43" name="vRestrict" color="2" fill="10" visible="yes" active="yes"/>
<layer number="44" name="Drills" color="7" fill="1" visible="no" active="yes"/>
<layer number="45" name="Holes" color="7" fill="1" visible="no" active="yes"/>
<layer number="46" name="Milling" color="3" fill="1" visible="no" active="yes"/>
<layer number="47" name="Measures" color="7" fill="1" visible="no" active="yes"/>
<layer number="48" name="Document" color="7" fill="1" visible="yes" active="yes"/>
<layer number="49" name="Reference" color="7" fill="1" visible="yes" active="yes"/>
<layer number="51" name="tDocu" color="7" fill="1" visible="yes" active="yes"/>
<layer number="52" name="bDocu" color="7" fill="1" visible="yes" active="yes"/>
<layer number="90" name="Modules" color="5" fill="1" visible="yes" active="yes"/>
<layer number="91" name="Nets" color="2" fill="1" visible="yes" active="yes"/>
<layer number="92" name="Busses" color="1" fill="1" visible="yes" active="yes"/>
<layer number="93" name="Pins" color="2" fill="1" visible="no" active="yes"/>
<layer number="94" name="Symbols" color="4" fill="1" visible="yes" active="yes"/>
<layer number="95" name="Names" color="7" fill="1" visible="yes" active="yes"/>
<layer number="96" name="Values" color="7" fill="1" visible="yes" active="yes"/>
<layer number="97" name="Info" color="7" fill="1" visible="yes" active="yes"/>
<layer number="98" name="Guide" color="6" fill="1" visible="yes" active="yes"/>
</layers>
<library>
<description>&lt;Leaded Disk Varistors, Max. Operating Voltage [AC]=275Vrms, Max. Surge Current Imax(8/20?s,1time)=2500A&lt;/b&gt;&lt;p&gt;
&lt;author&gt;Created by SamacSys&lt;/author&gt;</description>
<packages>
<package name="B72210S0271K101">
<description>&lt;b&gt;B72210S0271K101-2&lt;/b&gt;&lt;br&gt;
</description>
<pad name="1" x="0.000" y="0.000" drill="1" diameter="1.500" shape="square"/>
<pad name="2" x="7.500" y="-1.800" drill="1" diameter="1.500"/>
<text x="3.750" y="-0.900" align="center" size="1.27" layer="25" rot="R0" >&gt;NAME</text>
<text x="3.750" y="-0.900" align="center" size="1.27" layer="27" rot="R0" >&gt;VALUE</text>
<wire x1="-2.25" y1="1.6" x2="9.75" y2="1.6" width="0.1" layer="51"/>
<wire x1="9.75" y1="1.6" x2="9.75" y2="-3.4" width="0.1" layer="51"/>
<wire x1="9.75" y1="-3.4" x2="-2.25" y2="-3.4" width="0.1" layer="51"/>
<wire x1="-2.25" y1="-3.4" x2="-2.25" y2="1.6" width="0.1" layer="51"/>
<wire x1="-2.25" y1="1.6" x2="9.75" y2="1.6" width="0.2" layer="21"/>
<wire x1="9.75" y1="1.6" x2="9.75" y2="-3.4" width="0.2" layer="21"/>
<wire x1="9.75" y1="-3.4" x2="-2.25" y2="-3.4" width="0.2" layer="21"/>
<wire x1="-2.25" y1="-3.4" x2="-2.25" y2="1.6" width="0.2" layer="21"/>
<wire x1="-3.25" y1="2.6" x2="10.75" y2="2.6" width="0.1" layer="51"/>
<wire x1="10.75" y1="2.6" x2="10.75" y2="-4.4" width="0.1" layer="51"/>
<wire x1="10.75" y1="-4.4" x2="-3.25" y2="-4.4" width="0.1" layer="51"/>
<wire x1="-3.25" y1="-4.4" x2="-3.25" y2="2.6" width="0.1" layer="51"/>
<wire x1="-2.7" y1="0" x2="-2.7" y2="0" width="0.1" layer="21"/>
<wire x1="-2.700" y1="0.000" x2="-2.800" y2="0.000" width="0.1" layer="21" curve="180.0"/>
<wire x1="-2.8" y1="0" x2="-2.8" y2="0" width="0.1" layer="21"/>
<wire x1="-2.800" y1="0.000" x2="-2.700" y2="0.000" width="0.1" layer="21" curve="180.0"/>
</package>
</packages>
<symbols>
<symbol name="B72210S0271K101">
<wire x1="5.08" y1="1.27" x2="12.7" y2="1.27" width="0.254" layer="94"/>
<wire x1="12.7" y1="-1.27" x2="12.7" y2="1.27" width="0.254" layer="94"/>
<wire x1="12.7" y1="-1.27" x2="5.08" y2="-1.27" width="0.254" layer="94"/>
<wire x1="5.08" y1="1.27" x2="5.08" y2="-1.27" width="0.254" layer="94"/>
<wire x1="3.81" y1="-2.54" x2="6.35" y2="-2.54" width="0.254" layer="94"/>
<wire x1="11.43" y1="2.54" x2="6.35" y2="-2.54" width="0.254" layer="94"/>
<wire x1="11.43" y1="2.54" x2="13.97" y2="2.54" width="0.254" layer="94"/>
<text x="13.97" y="6.35" align="center-left" size="1.778" layer="95">&gt;NAME</text>
<text x="13.97" y="3.81" align="center-left" size="1.778" layer="96">&gt;VALUE</text>
<pin name="1" x="0" y="0" visible="pad" length="middle" direction="io" rot="R0"/>
<pin name="2" x="17.78" y="0" visible="pad" length="middle" direction="io" rot="R180"/>
</symbol>
</symbols>
<devicesets>
<deviceset name="B72210S0271K101" prefix="RV">
<description>&lt;b&gt;Leaded Disk Varistors, Max. Operating Voltage [AC]=275Vrms, Max. Surge Current Imax(8/20?s,1time)=2500A&lt;/b&gt;&lt;p&gt;
Source: &lt;a href="https://product.tdk.com/system/files/dam/doc/product/protection/voltage/lead-disk-varistor/data_sheet/70/db/var/siov_leaded_standard.pdf"&gt; Datasheet &lt;/a&gt;</description>
<gates>
<gate name="G$1" symbol="B72210S0271K101" x="0" y="0"/>
</gates>
<devices>
<device name="" package="B72210S0271K101">
<connects>
<connect gate="G$1" pin="1" pad="1"/>
<connect gate="G$1" pin="2" pad="2"/>
</connects>
<technologies>
<technology name="">
<attribute name="Mouser_Part_Number" value="871-B72210S271K101" constant="no"/>
<attribute name="Mouser_Price-Stock" value="https://www.mouser.co.uk/ProductDetail/EPCOS-TDK/B72210S0271K101?qs=dEfas%2FXlABJcVym03yTASg%3D%3D" constant="no"/>
<attribute name="Manufacturer_Name" value="TDK" constant="no"/>
<attribute name="Manufacturer_Part_Number" value="B72210S0271K101" constant="no"/>
<attribute name="Description" value="Leaded Disk Varistors, Max. Operating Voltage [AC]=275Vrms, Max. Surge Current Imax(8/20?s,1time)=2500A" constant="no"/>
<attribute name="Height" value="14.5mm" constant="no"/>
</technology>
</technologies>
</device>
</devices>
</deviceset>
</devicesets>
</library>
</drawing>
</eagle>
