(footprint "Buzzer 9mm" (version 20221018) (generator pcbnew)
  (layer "F.Cu")
  (attr through_hole)
  (fp_text reference "REF**" (at 0.0508 6.3726 unlocked) (layer "F.SilkS")
      (effects (font (size 1 1) (thickness 0.1)))
    (tstamp 11926a4d-89b8-4dba-b3cd-612bdd782e63)
  )
  (fp_text value "Buzzer 9mm" (at 0.0508 7.8726 unlocked) (layer "F.Fab")
      (effects (font (size 1 1) (thickness 0.15)))
    (tstamp 6fe1d2dc-9805-484f-b843-f8caae5063c2)
  )
  (fp_text user "+" (at -3.2512 -1.7272 unlocked) (layer "F.SilkS")
      (effects (font (size 1.5 1.5) (thickness 0.2)) (justify left bottom))
    (tstamp 8886b771-749d-4bb7-b56e-44cf4bb29da7)
  )
  (fp_text user "${REFERENCE}" (at 0.0508 9.3726 unlocked) (layer "F.Fab")
      (effects (font (size 1 1) (thickness 0.15)))
    (tstamp a188855c-0800-4cbb-b689-6cf4c759de79)
  )
  (fp_circle (center 0 0) (end 4.5 0)
    (stroke (width 0.1) (type default)) (fill none) (layer "F.SilkS") (tstamp 0696009d-a760-4570-b174-0be542cb67d8))
  (pad "1" thru_hole circle (at -2.54 0) (size 1.6 1.6) (drill 0.9) (layers "*.Cu" "*.Mask") (tstamp e54fd8f0-caba-4fb2-8e29-2f24b43de562))
  (pad "2" thru_hole circle (at 2.54 0) (size 1.6 1.6) (drill 0.9) (layers "*.Cu" "*.Mask") (tstamp f7ecf28c-1b42-46fb-abb1-26f49c548807))
  (model "C:/Users/Ravani/Documents/KiCad/Arquivos 3D/12085_buzzer.step"
    (offset (xyz -2.3 0 0))
    (scale (xyz 0.68 0.68 0.68))
    (rotate (xyz 0 0 0))
  )
)
