(footprint "CAPAE630X610N" (version 20221018) (generator pcbnew)
  (layer "F.Cu")
  (descr "AFK106M50D16T-F")
  (tags "Capacitor Polarised")
  (attr smd)
  (fp_text reference "C**" (at 0.1 -9.05) (layer "F.SilkS")
      (effects (font (size 1.27 1.27) (thickness 0.254)))
    (tstamp bf8e1eb0-424c-48bc-9f71-22948a8d693a)
  )
  (fp_text value "CAPAE630X610N" (at 0.05 -5.1) (layer "F.SilkS") hide
      (effects (font (size 1.27 1.27) (thickness 0.254)))
    (tstamp f370ef40-c610-4f43-a181-e3ff52b67047)
  )
  (fp_text user "${REFERENCE}" (at 0.2 -7.3) (layer "F.Fab")
      (effects (font (size 1.27 1.27) (thickness 0.254)))
    (tstamp 0637759e-9cc4-40be-9063-9d03da3a9acb)
  )
  (fp_line (start -4.7 -3.15) (end 3.15 -3.15)
    (stroke (width 0.2) (type solid)) (layer "F.SilkS") (tstamp afa65dd9-19c3-49d0-8d91-bfdf4ab29a1a))
  (fp_line (start -1.575 3.15) (end 3.15 3.15)
    (stroke (width 0.2) (type solid)) (layer "F.SilkS") (tstamp c6a2ab5c-3f3f-4ad6-89f5-6f8d97aa606b))
  (fp_line (start -5.2 -3.9) (end 5.2 -3.9)
    (stroke (width 0.05) (type solid)) (layer "F.CrtYd") (tstamp 84126e84-67c5-4440-a2b9-17b17c5c1043))
  (fp_line (start -5.2 3.9) (end -5.2 -3.9)
    (stroke (width 0.05) (type solid)) (layer "F.CrtYd") (tstamp 4885180c-136d-44ba-944e-314423f81c10))
  (fp_line (start 5.2 -3.9) (end 5.2 3.9)
    (stroke (width 0.05) (type solid)) (layer "F.CrtYd") (tstamp 2776fc67-69de-4147-ae6a-dfd62180a176))
  (fp_line (start 5.2 3.9) (end -5.2 3.9)
    (stroke (width 0.05) (type solid)) (layer "F.CrtYd") (tstamp a63a1f20-3a6d-4947-b9d8-4e61736c92f7))
  (fp_line (start -3.15 -1.575) (end -3.15 1.575)
    (stroke (width 0.1) (type solid)) (layer "F.Fab") (tstamp 44460134-54db-4aa5-bbf5-21946f606d4a))
  (fp_line (start -3.15 1.575) (end -1.575 3.15)
    (stroke (width 0.1) (type solid)) (layer "F.Fab") (tstamp f08777a5-4351-49ea-a9df-de8d6272503e))
  (fp_line (start -1.575 -3.15) (end -3.15 -1.575)
    (stroke (width 0.1) (type solid)) (layer "F.Fab") (tstamp d3535e55-3e47-49f8-a791-9cf78660ef9e))
  (fp_line (start -1.575 3.15) (end 3.15 3.15)
    (stroke (width 0.1) (type solid)) (layer "F.Fab") (tstamp bc71ebac-5729-4991-85d3-144f977e955f))
  (fp_line (start 3.15 -3.15) (end -1.575 -3.15)
    (stroke (width 0.1) (type solid)) (layer "F.Fab") (tstamp 8ba41147-753c-4eef-8834-f196ce4812d1))
  (fp_line (start 3.15 3.15) (end 3.15 -3.15)
    (stroke (width 0.1) (type solid)) (layer "F.Fab") (tstamp a9d15d18-b30f-4732-a091-50abe5aa44de))
  (pad "1" smd rect (at -3 0 90) (size 1.8 3.4) (layers "F.Cu" "F.Paste" "F.Mask") (tstamp c56de405-328c-46f2-86ff-81eb4f4537d1))
  (pad "2" smd rect (at 3 0 90) (size 1.8 3.4) (layers "F.Cu" "F.Paste" "F.Mask") (tstamp fb9b87d3-e82e-4f2a-af78-5eef6d5e8fcd))
  (model "AFK106M50D16T-F.stp"
    (offset (xyz 0 0 0))
    (scale (xyz 1 1 1))
    (rotate (xyz 0 0 0))
  )
  (model "C:/Users/Ravani/Documents/KiCad/LIB/Cap_ele_6-3/AFK106M50D16T-F/3D/AFK106M50D16T-F.stp"
    (offset (xyz 0 0 0))
    (scale (xyz 1 1 1.2))
    (rotate (xyz 0 0 0))
  )
)
