(footprint "Chave Táctil Push Button SMD 2 Terminais 3x6x4,3 Preta (KFC-A06)" (version 20221018) (generator pcbnew)
  (layer "F.Cu")
  (attr smd)
  (fp_text reference "REF**" (at 0.0254 5.4582 unlocked) (layer "F.SilkS")
      (effects (font (size 1 1) (thickness 0.1)))
    (tstamp 5fc3e555-c53e-48af-bad3-434ad278249d)
  )
  (fp_text value "Chave Táctil Push Button SMD 2 Terminais 3x6x4,3 Preta (KFC-A06)" (at 0.0254 6.9582 unlocked) (layer "F.Fab")
      (effects (font (size 1 1) (thickness 0.15)))
    (tstamp 90767de3-244e-41f0-bc0c-8cc0488672c7)
  )
  (fp_text user "${REFERENCE}" (at 0.0254 8.4582 unlocked) (layer "F.Fab")
      (effects (font (size 1 1) (thickness 0.15)))
    (tstamp 9d52dad7-901d-4642-9187-c05730483dd7)
  )
  (fp_line (start 1.3208 -1.5) (end 1.3208 -0.9652)
    (stroke (width 0.1) (type default)) (layer "F.SilkS") (tstamp 19e52c41-779a-4252-ab1f-0b0736cd8f64))
  (fp_line (start 1.3208 -1.5) (end 5.8928 -1.5)
    (stroke (width 0.1) (type default)) (layer "F.SilkS") (tstamp 8c3b1d58-2663-450b-86ef-22e0dcb50e4c))
  (fp_line (start 1.4224 1.5) (end 1.4224 0.9652)
    (stroke (width 0.1) (type default)) (layer "F.SilkS") (tstamp bd0b8745-d635-426d-9f7a-a8db86735c97))
  (fp_line (start 1.4224 1.5) (end 5.8674 1.5)
    (stroke (width 0.1) (type default)) (layer "F.SilkS") (tstamp bab8489b-c46a-4a23-a741-6765d9023f71))
  (fp_line (start 5.8674 1.5) (end 5.8674 0.9772)
    (stroke (width 0.1) (type default)) (layer "F.SilkS") (tstamp f27566e6-648a-4236-8c6b-cd8f25ef609e))
  (fp_line (start 5.8928 -1.5) (end 5.8928 -0.9652)
    (stroke (width 0.1) (type default)) (layer "F.SilkS") (tstamp f4a70d91-6329-4bc0-b46d-fdb075ef821a))
  (fp_rect (start 2.4765 -0.5) (end 4.6355 0.5)
    (stroke (width 0.1) (type default)) (fill none) (layer "F.SilkS") (tstamp 1d6897c6-a846-4245-a191-c546f7d50861))
  (pad "1" smd roundrect (at 0.4291 0.006) (size 3.3582 1.512) (layers "F.Cu" "F.Paste" "F.Mask") (roundrect_rratio 0.25)
    (thermal_bridge_angle 45) (tstamp 0c8f46ff-ed20-4e8a-87de-62ce30179c7f))
  (pad "2" smd roundrect (at 6.5761 -0.0448) (size 3.3478 1.4104) (layers "F.Cu" "F.Paste" "F.Mask") (roundrect_rratio 0.25)
    (thermal_bridge_angle 45) (tstamp 7ff20713-6aa2-4a67-912a-6ff6c493de24))
  (model "C:/Users/Ravani/Documents/KiCad/Arquivos 3D/Tactile_Switch_SMD.step"
    (offset (xyz 3.5 0 0))
    (scale (xyz 1 1 1))
    (rotate (xyz 0 0 0))
  )
)
