(footprint "Header_Shrouded_3vias" (version 20221018) (generator pcbnew)
  (layer "F.Cu")
  (descr "440054-3")
  (tags "Connector")
  (attr through_hole)
  (fp_text reference "J**" (at 2.54 -10.16) (layer "F.SilkS")
      (effects (font (size 1.27 1.27) (thickness 0.254)))
    (tstamp f8e419fd-6839-473c-b4f1-d95bfe670c51)
  )
  (fp_text value "Header_Shrouded_3vias" (at 2.54 -5.08) (layer "F.SilkS") hide
      (effects (font (size 1.27 1.27) (thickness 0.254)))
    (tstamp 04785a2e-4557-4d74-8e7a-6407111895ff)
  )
  (fp_text user "${REFERENCE}" (at 2.54 -7.62) (layer "F.Fab")
      (effects (font (size 1.27 1.27) (thickness 0.254)))
    (tstamp b3888052-effe-47e6-9d0e-645491beedf7)
  )
  (fp_line (start -2 -3.05) (end -2 1.9304)
    (stroke (width 0.2) (type solid)) (layer "F.SilkS") (tstamp c120e73c-ee3b-4e14-827c-7c36e7bea6b9))
  (fp_line (start -1.9816 1.9304) (end 4.3184 1.9304)
    (stroke (width 0.2) (type solid)) (layer "F.SilkS") (tstamp cca80d9f-5b6a-4685-b36e-3d281a469e42))
  (fp_line (start 6.2992 -0.0254) (end 6.3 -3.05)
    (stroke (width 0.2) (type solid)) (layer "F.SilkS") (tstamp 6c02a2fc-808c-48a5-be87-837640ed12c3))
  (fp_line (start 6.3 -3.05) (end -2 -3.05)
    (stroke (width 0.2) (type solid)) (layer "F.SilkS") (tstamp f3f383bb-1b65-4c7c-8211-e6a052125992))
  (fp_line (start -2.25 -3.3) (end 6.55 -3.3)
    (stroke (width 0.05) (type solid)) (layer "F.CrtYd") (tstamp 42aea3a5-cb92-4f71-8a79-a414ec6aa7ac))
  (fp_line (start -2.25 2.2) (end -2.25 -3.3)
    (stroke (width 0.05) (type solid)) (layer "F.CrtYd") (tstamp 4ab741fb-4c9e-4f5d-96c9-9289f991ff49))
  (fp_line (start 6.55 -3.3) (end 6.55 2.2)
    (stroke (width 0.05) (type solid)) (layer "F.CrtYd") (tstamp 2164a88d-ee9f-4390-97e5-1e5281999c92))
  (fp_line (start 6.55 2.2) (end -2.25 2.2)
    (stroke (width 0.05) (type solid)) (layer "F.CrtYd") (tstamp 167ee82d-0b90-4b53-b5c4-f68cc098cf6f))
  (fp_line (start -2 -3.05) (end 6.3 -3.05)
    (stroke (width 0.1) (type solid)) (layer "F.Fab") (tstamp 7d88a482-0484-4883-b792-0a165eb6d441))
  (fp_line (start -2 1.95) (end -2 -3.05)
    (stroke (width 0.1) (type solid)) (layer "F.Fab") (tstamp 4adfa50b-e861-4070-b8e3-9c4b34805633))
  (fp_line (start 6.3 -3.05) (end 6.3 1.95)
    (stroke (width 0.1) (type solid)) (layer "F.Fab") (tstamp 48a9dd29-fa06-42bc-8707-c996ce9fe5ac))
  (fp_line (start 6.3 1.95) (end -2 1.95)
    (stroke (width 0.1) (type solid)) (layer "F.Fab") (tstamp 6f1cca04-62c0-4869-ba2c-d5c8a4a756ee))
  (pad "1" thru_hole circle (at 0 0) (size 1.35 1.35) (drill 0.9) (layers "*.Cu" "*.Mask") (tstamp 48fdee8f-89dc-4191-843d-9563ab009756))
  (pad "2" thru_hole circle (at 2 0) (size 1.35 1.35) (drill 0.9) (layers "*.Cu" "*.Mask") (tstamp e7833200-4a82-4c54-b72a-6c4d0ff788b3))
  (pad "3" thru_hole circle (at 4 0) (size 1.35 1.35) (drill 0.9) (layers "*.Cu" "*.Mask") (tstamp 2035587e-b04a-4948-89dc-2f5679ae65a1))
  (model "C:/Users/Ravani/Documents/KiCad/Arquivos 3D/440054-3/3D/440054-3.stp"
    (offset (xyz 2.089999883 0.1500000037 6.0500001))
    (scale (xyz 1 1 1))
    (rotate (xyz 0 0 0))
  )
)
