(footprint "KK_4vias" (version 20221018) (generator pcbnew)
  (layer "F.Cu")
  (descr "440054-2")
  (tags "Connector")
  (attr through_hole)
  (fp_text reference "J**" (at -0.05 -9.85) (layer "F.SilkS")
      (effects (font (size 1.27 1.27) (thickness 0.254)))
    (tstamp 1cd7396c-1a7d-47be-a607-50b884f45d04)
  )
  (fp_text value "KK_4vias" (at 0.05 -5.2) (layer "F.SilkS") hide
      (effects (font (size 1.27 1.27) (thickness 0.254)))
    (tstamp c1b2f87f-4cee-46e6-9260-d478e4cbd281)
  )
  (fp_text user "${REFERENCE}" (at 0.05 -8.05) (layer "F.Fab")
      (effects (font (size 1.27 1.27) (thickness 0.254)))
    (tstamp b93655d6-6496-4049-ad05-3c37c708e949)
  )
  (fp_line (start -3.4036 2.54) (end -3.4 -3.0254)
    (stroke (width 0.2) (type solid)) (layer "F.SilkS") (tstamp 5468336b-d455-4d22-b995-74f35ad8acab))
  (fp_line (start -3.4 -3.05) (end 6.95 -3.05)
    (stroke (width 0.2) (type solid)) (layer "F.SilkS") (tstamp 94c4c3d2-dbcf-4428-b5ac-1318bede9eeb))
  (fp_line (start 6.9342 2.54) (end -3.4036 2.54)
    (stroke (width 0.2) (type solid)) (layer "F.SilkS") (tstamp bff60d6a-753f-4d39-9ce7-98836662c68c))
  (fp_line (start 6.95 -3.05) (end 6.95 2.5146)
    (stroke (width 0.2) (type solid)) (layer "F.SilkS") (tstamp 47c92c9f-93f5-4f27-9008-fb8c54e8f78a))
  (pad "1" thru_hole circle (at -2 0) (size 1.8 1.8) (drill 1) (layers "*.Cu" "*.Mask") (tstamp 2ffbf943-9c5b-46fb-8f9f-0e8779c33611))
  (pad "2" thru_hole circle (at 0.54 0) (size 1.8 1.8) (drill 1) (layers "*.Cu" "*.Mask") (tstamp 8b88917b-ddc5-44ac-9eb6-7712d3bdb67c))
  (pad "3" thru_hole circle (at 3.08 0) (size 1.8 1.8) (drill 1) (layers "*.Cu" "*.Mask") (tstamp 1577380d-c03c-44f2-b779-e4ed6a7be3c7))
  (pad "4" thru_hole circle (at 5.52 0) (size 1.8 1.8) (drill 1) (layers "*.Cu" "*.Mask") (tstamp 10965b11-c63a-4daf-8e18-f2490c1325f1))
  (model "440054-2.stp"
    (offset (xyz -1.019999966 0.2099999903 6.0500001))
    (scale (xyz 1 1 1))
    (rotate (xyz 0 0 0))
  )
)
