(footprint "KRE_6Vias" (version 20221018) (generator pcbnew)
  (layer "F.Cu")
  (attr through_hole)
  (fp_text reference "REF**" (at -2.2606 6.223 unlocked) (layer "F.SilkS")
      (effects (font (size 1 1) (thickness 0.1)))
    (tstamp 4e9f29ed-329a-4d9f-a7a2-51c46e9c5622)
  )
  (fp_text value "KRE_6Vias" (at 20.32 -1.3208 unlocked) (layer "F.Fab")
      (effects (font (size 1 1) (thickness 0.15)))
    (tstamp 04798f73-fc39-4c4d-bab8-68f09f7e8264)
  )
  (fp_text user "INPUT" (at -4.5466 -2.5908 unlocked) (layer "F.SilkS")
      (effects (font (size 1 1) (thickness 0.1)) (justify left bottom))
    (tstamp 03396d69-d796-454b-a7eb-aa89e7fd2217)
  )
  (fp_text user "${REFERENCE}" (at 20.32 0.8128 unlocked) (layer "F.Fab")
      (effects (font (size 1 1) (thickness 0.15)))
    (tstamp 4ceba75f-da55-4116-b898-71d550406c04)
  )
  (fp_rect (start -17.5006 -3.92) (end 12.58 -2.413)
    (stroke (width 0.1) (type default)) (fill none) (layer "F.SilkS") (tstamp 8ad77a1a-6d3f-4716-96a0-26b8452d6c84))
  (fp_rect (start -17.5 -3.92) (end 12.58 4.572)
    (stroke (width 0.1) (type default)) (fill none) (layer "F.SilkS") (tstamp 66827beb-7ad2-458a-9e4f-716757244d41))
  (pad "1" thru_hole circle (at -15.24 0) (size 2.2 2.2) (drill 1.2) (layers "*.Cu" "*.Mask") (tstamp 86c7d3ce-bb62-4aa3-a6a5-01ee2f53c42a))
  (pad "2" thru_hole circle (at -10.16 0) (size 2.2 2.2) (drill 1.2) (layers "*.Cu" "*.Mask") (tstamp 68624ab3-0757-4f95-804d-47c395fccfc8))
  (pad "3" thru_hole circle (at -5.08 0) (size 2.2 2.2) (drill 1.2) (layers "*.Cu" "*.Mask") (tstamp 18628629-0a92-4f45-a545-568298edae27))
  (pad "4" thru_hole circle (at 0 0) (size 2.2 2.2) (drill 1.2) (layers "*.Cu" "*.Mask") (tstamp ee4c6fef-3359-4246-bd7a-b4449ccedc6b))
  (pad "5" thru_hole circle (at 5.08 0) (size 2.2 2.2) (drill 1.2) (layers "*.Cu" "*.Mask") (tstamp 1ef761c4-e603-47a5-a141-3852b3c13cf1))
  (pad "6" thru_hole circle (at 10.16 0) (size 2.2 2.2) (drill 1.2) (layers "*.Cu" "*.Mask") (tstamp a77632ad-84ef-44a5-8cd0-6cb5165a780f))
  (model "C:/Users/Ravani/Documents/KiCad/Arquivos 3D/KRE_3.STEP"
    (offset (xyz 3.4 10.3 5))
    (scale (xyz 1 1 1))
    (rotate (xyz -90 0 0))
  )
  (model "C:/Users/Ravani/Documents/KiCad/Arquivos 3D/KRE_3.STEP"
    (offset (xyz -11.7 10.3 5))
    (scale (xyz 1 1 1))
    (rotate (xyz -90 0 0))
  )
)
