(footprint "Porta_fusível" (version 20221018) (generator pcbnew)
  (layer "F.Cu")
  (attr through_hole)
  (fp_text reference "REF**" (at 0 11.25 unlocked) (layer "F.SilkS")
      (effects (font (size 1 1) (thickness 0.1)))
    (tstamp 3908c4cb-fd23-49f6-871a-2b9ddc50b1c8)
  )
  (fp_text value "Porta_fusível" (at 0 12.75 unlocked) (layer "F.Fab")
      (effects (font (size 1 1) (thickness 0.15)))
    (tstamp ef2061d9-76f0-48b9-b9f0-c37c8cb12ab5)
  )
  (fp_text user "${REFERENCE}" (at 0 14.25 unlocked) (layer "F.Fab")
      (effects (font (size 1 1) (thickness 0.15)))
    (tstamp 7f625c90-279d-4ed4-9274-653f1740cb98)
  )
  (fp_rect (start 4.625 -5.55) (end 29.775 5.55)
    (stroke (width 0.1) (type default)) (fill none) (layer "F.SilkS") (tstamp 1d53416e-ceeb-4efc-a7e7-5081eb362291))
  (pad "1" thru_hole circle (at 9.95 0.1) (size 3.6 3.6) (drill 1.8) (layers "*.Cu" "*.Mask") (tstamp 1cf98f4f-380c-4db6-89b0-936f22533e43))
  (pad "2" thru_hole circle (at 24.45 0.1) (size 3.6 3.6) (drill 1.8) (layers "*.Cu" "*.Mask") (tstamp ea6246bd-365a-420d-b0af-6f1fc990893a))
  (group "" (id 6781e01a-df8b-4532-9ba0-87a5c39bea00)
    (members
      1cf98f4f-380c-4db6-89b0-936f22533e43
      ea6246bd-365a-420d-b0af-6f1fc990893a
    )
  )
)
