PCBNEW-LibModule-V1  2024-07-12 18:04:54
# encoding utf-8
Units mm
$INDEX
TCRT5000L
$EndINDEX
$MODULE TCRT5000L
Po 0 0 0 15 66916236 00000000 ~~
Li TCRT5000L
Cd TCRT5000L
Kw Integrated Circuit
Sc 0
At STD
AR 
Op 0 0 0
T0 -0.432 -0.015 1.27 1.27 0 0.254 N V 21 N "IC**"
T1 -0.432 -0.015 1.27 1.27 0 0.254 N I 21 N "TCRT5000L"
DS -5.1 -2.9 5.1 -2.9 0.2 24
DS 5.1 -2.9 5.1 2.9 0.2 24
DS 5.1 2.9 -5.1 2.9 0.2 24
DS -5.1 2.9 -5.1 -2.9 0.2 24
DS 5.1 2.9 5.1 -2.9 0.2 21
DS 5.1 -2.9 1.5 -2.9 0.2 21
DS 5.1 2.9 1.5 2.9 0.2 21
DS -5.1 -2.9 -1.5 -2.9 0.2 21
DC -2.79 -3.492 -2.848 -3.492 0.254 21
$PAD
Po -2.75 -1.27
Sh "1" C 1.55 1.55 0 0 900
Dr 1 0 0
At STD N 00E0FFFF
Ne 0 ""
$EndPAD
$PAD
Po -2.75 1.27
Sh "2" C 1.55 1.55 0 0 900
Dr 1 0 0
At STD N 00E0FFFF
Ne 0 ""
$EndPAD
$PAD
Po 2.75 1.27
Sh "3" C 1.55 1.55 0 0 900
Dr 1 0 0
At STD N 00E0FFFF
Ne 0 ""
$EndPAD
$PAD
Po 2.75 -1.27
Sh "4" C 1.55 1.55 0 0 900
Dr 1 0 0
At STD N 00E0FFFF
Ne 0 ""
$EndPAD
$PAD
Po 0 -1.9
Sh "5" C 2.5 2.5 0 0 900
Dr 2.5 0 0
At STD N 00E0FFFF
Ne 0 ""
$EndPAD
$PAD
Po 0 1.9
Sh "6" C 2.5 2.5 0 0 900
Dr 2.5 0 0
At STD N 00E0FFFF
Ne 0 ""
$EndPAD
$PAD
Po -4.65 2.45
Sh "7" C 1 1 0 0 900
Dr 1 0 0
At STD N 00E0FFFF
Ne 0 ""
$EndPAD
$EndMODULE TCRT5000L
$EndLIBRARY
