PCBNEW-LibModule-V1  2023-05-08 12:46:26
# encoding utf-8
Units mm
$INDEX
SHDR5W60P0X200_1X5_1200X470X635P
$EndINDEX
$MODULE SHDR5W60P0X200_1X5_1200X470X635P
Po 0 0 0 15 6458e112 00000000 ~~
Li SHDR5W60P0X200_1X5_1200X470X635P
Cd 440054-5
Kw Connector
Sc 0
At STD
AR 
Op 0 0 0
T0 0 0 1.27 1.27 0 0.254 N V 21 N "J**"
T1 0 0 1.27 1.27 0 0.254 N I 21 N "SHDR5W60P0X200_1X5_1200X470X635P"
DS 2.4 2.15 -10.4 2.15 0.05 24
DS -10.4 2.15 -10.4 -3.35 0.05 24
DS -10.4 -3.35 2.4 -3.35 0.05 24
DS 2.4 -3.35 2.4 2.15 0.05 24
DS 2.15 1.9 -10.15 1.9 0.1 24
DS -10.15 1.9 -10.15 -3.1 0.1 24
DS -10.15 -3.1 2.15 -3.1 0.1 24
DS 2.15 -3.1 2.15 1.9 0.1 24
DS 0 1.9 -10.15 1.9 0.2 21
DS -10.15 1.9 -10.15 -3.1 0.2 21
DS -10.15 -3.1 2.15 -3.1 0.2 21
DS 2.15 -3.1 2.15 0 0.2 21
$PAD
Po 0 0
Sh "1" R 1.2 1.2 0 0 900
Dr 0.8 0 0
At STD N 00E0FFFF
Ne 0 ""
$EndPAD
$PAD
Po -2 0
Sh "2" C 1.2 1.2 0 0 900
Dr 0.8 0 0
At STD N 00E0FFFF
Ne 0 ""
$EndPAD
$PAD
Po -4 0
Sh "3" C 1.2 1.2 0 0 900
Dr 0.8 0 0
At STD N 00E0FFFF
Ne 0 ""
$EndPAD
$PAD
Po -6 0
Sh "4" C 1.2 1.2 0 0 900
Dr 0.8 0 0
At STD N 00E0FFFF
Ne 0 ""
$EndPAD
$PAD
Po -8 0
Sh "5" C 1.2 1.2 0 0 900
Dr 0.8 0 0
At STD N 00E0FFFF
Ne 0 ""
$EndPAD
$EndMODULE SHDR5W60P0X200_1X5_1200X470X635P
$EndLIBRARY
