(kicad_symbol_lib (version 20211014) (generator SamacSys_ECAD_Model)
  (symbol "171856-0004" (in_bom yes) (on_board yes)
    (property "Reference" "J" (at 16.51 7.62 0)
      (effects (font (size 1.27 1.27)) (justify left top))
    )
    (property "Value" "171856-0004" (at 16.51 5.08 0)
      (effects (font (size 1.27 1.27)) (justify left top))
    )
    (property "Footprint" "SHDR4W99P0X254_1X4_1001X635X1105P" (at 16.51 -94.92 0)
      (effects (font (size 1.27 1.27)) (justify left top) hide)
    )
    (property "Datasheet" "https://www.molex.com/pdm_docs/sd/1718560004_sd.pdf" (at 16.51 -194.92 0)
      (effects (font (size 1.27 1.27)) (justify left top) hide)
    )
    (property "ki_description" "Headers & Wire Housings KK Hdr Vrt 4 Ckt 2.54mm Pitch Sn" (at 16.51 -294.92 0)
      (effects (font (size 1.27 1.27)) (justify left top) hide)
    )
    (property "Height" "11.05" (at 16.51 -394.92 0)
      (effects (font (size 1.27 1.27)) (justify left top) hide)
    )
    (property "Mouser Part Number" "538-171856-0004" (at 16.51 -494.92 0)
      (effects (font (size 1.27 1.27)) (justify left top) hide)
    )
    (property "Mouser Price/Stock" "https://www.mouser.co.uk/ProductDetail/Molex/171856-0004?qs=s7UCm7gO1bZN34vfhOPY%2Fg%3D%3D" (at 16.51 -594.92 0)
      (effects (font (size 1.27 1.27)) (justify left top) hide)
    )
    (property "Manufacturer_Name" "Molex" (at 16.51 -694.92 0)
      (effects (font (size 1.27 1.27)) (justify left top) hide)
    )
    (property "Manufacturer_Part_Number" "171856-0004" (at 16.51 -794.92 0)
      (effects (font (size 1.27 1.27)) (justify left top) hide)
    )
    (rectangle
      (start 5.08 2.54)
      (end 15.24 -10.16)
      (stroke (width 0.254) (type default))
      (fill (type background))
    )
    (pin passive line (at 0 0 0) (length 5.08)
      (name "1" (effects (font (size 1.27 1.27))))
      (number "1" (effects (font (size 1.27 1.27))))
    )
    (pin passive line (at 0 -2.54 0) (length 5.08)
      (name "2" (effects (font (size 1.27 1.27))))
      (number "2" (effects (font (size 1.27 1.27))))
    )
    (pin passive line (at 0 -5.08 0) (length 5.08)
      (name "3" (effects (font (size 1.27 1.27))))
      (number "3" (effects (font (size 1.27 1.27))))
    )
    (pin passive line (at 0 -7.62 0) (length 5.08)
      (name "4" (effects (font (size 1.27 1.27))))
      (number "4" (effects (font (size 1.27 1.27))))
    )
  )
)
