PCBNEW-LibModule-V1  2023-06-22 13:29:10
# encoding utf-8
Units mm
$INDEX
SHDR4W99P0X254_1X4_1001X635X1105P
$EndINDEX
$MODULE SHDR4W99P0X254_1X4_1001X635X1105P
Po 0 0 0 15 64943e96 00000000 ~~
Li SHDR4W99P0X254_1X4_1001X635X1105P
Cd 171856-0004
Kw Connector
Sc 0
At STD
AR 
Op 0 0 0
T0 0 0 1.27 1.27 0 0.254 N V 21 N "J**"
T1 0 0 1.27 1.27 0 0.254 N I 21 N "SHDR4W99P0X254_1X4_1001X635X1105P"
DS -1.44 3.5 -1.44 -3.6 0.05 24
DS -1.44 -3.6 9.32 -3.6 0.05 24
DS 9.32 -3.6 9.32 3.5 0.05 24
DS 9.32 3.5 -1.44 3.5 0.05 24
DS -1.19 3.25 -1.19 -3.35 0.1 24
DS -1.19 -3.35 9.07 -3.35 0.1 24
DS 9.07 -3.35 9.07 3.25 0.1 24
DS 9.07 3.25 -1.19 3.25 0.1 24
DS 0 3.25 9.07 3.25 0.2 21
DS 9.07 3.25 9.07 -3.35 0.2 21
DS 9.07 -3.35 -1.19 -3.35 0.2 21
DS -1.19 -3.35 -1.19 0 0.2 21
$PAD
Po 0 0
Sh "1" R 1.8 1.8 0 0 900
Dr 1.2 0 0
At STD N 00E0FFFF
Ne 0 ""
$EndPAD
$PAD
Po 2.54 0
Sh "2" C 1.8 1.8 0 0 900
Dr 1.2 0 0
At STD N 00E0FFFF
Ne 0 ""
$EndPAD
$PAD
Po 5.08 0
Sh "3" C 1.8 1.8 0 0 900
Dr 1.2 0 0
At STD N 00E0FFFF
Ne 0 ""
$EndPAD
$PAD
Po 7.62 0
Sh "4" C 1.8 1.8 0 0 900
Dr 1.2 0 0
At STD N 00E0FFFF
Ne 0 ""
$EndPAD
$EndMODULE SHDR4W99P0X254_1X4_1001X635X1105P
$EndLIBRARY
