PCBNEW-LibModule-V1  2023-09-20 14:51:55
# encoding utf-8
Units mm
$INDEX
CMI96050580T
$EndINDEX
$MODULE CMI96050580T
Po 0 0 0 15 650af8fb 00000000 ~~
Li CMI96050580T
Cd CMI-9605-0580T-1
Kw Loudspeaker or Buzzer
Sc 0
At STD
AR 
Op 0 0 0
T0 0.000 2.1 1.27 1.27 0 0.254 N V 21 N "LS**"
T1 0.000 2.1 1.27 1.27 0 0.254 N I 21 N "CMI96050580T"
DS -5.8 -4.1 5.8 -4.1 0.1 24
DS 5.8 -4.1 5.8 8.3 0.1 24
DS 5.8 8.3 -5.8 8.3 0.1 24
DS -5.8 8.3 -5.8 -4.1 0.1 24
DS -5.8 -4.1 5.8 -4.1 0.1 24
DS 5.8 -4.1 5.8 8.3 0.1 24
DS 5.8 8.3 -5.8 8.3 0.1 24
DS -5.8 8.3 -5.8 -4.1 0.1 24
DS -4.8 2.5 -4.8 2.5 0.2 24
DS 4.8 2.5 4.8 2.5 0.2 24
DS -4.8 2.5 -4.8 2.5 0.1 21
DS 4.8 2.5 4.8 2.5 0.1 21
DS -0.5 -3 -0.5 -3 0.1 21
DS -0.5 -3.1 -0.5 -3.1 0.1 21
DA 0 2.5 -4.800 2.5 -1800 0.2 24
DA 0 2.5 4.800 2.5 -1800 0.2 24
DA 0 2.5 -4.800 2.5 -1800 0.1 21
DA 0 2.5 4.800 2.5 -1800 0.1 21
DA -0.5 -3.05 -0.500 -3 -1800 0.1 21
DA -0.5 -3.05 -0.500 -3.1 -1800 0.1 21
$PAD
Po 0.000 -0
Sh "1" C 2.000 2.000 0 0 900
Dr 0.8 0 0
At STD N 00E0FFFF
Ne 0 ""
$EndPAD
$PAD
Po 0.000 5
Sh "2" C 2.000 2.000 0 0 900
Dr 0.8 0 0
At STD N 00E0FFFF
Ne 0 ""
$EndPAD
$EndMODULE CMI96050580T
$EndLIBRARY
