PCBNEW-LibModule-V1  2024-07-02 18:35:13
# encoding utf-8
Units mm
$INDEX
1803277
$EndINDEX
$MODULE 1803277
Po 0 0 0 15 66843a51 00000000 ~~
Li 1803277
Cd 1803277
Kw Connector
Sc 0
At STD
AR 
Op 0 0 0
T0 1.657 3.4 1.27 1.27 0 0.254 N V 21 N "J**"
T1 1.657 3.4 1.27 1.27 0 0.254 N I 21 N "1803277"
DS -2.6 -1.2 6.41 -1.2 0.2 24
DS 6.41 -1.2 6.41 8 0.2 24
DS 6.41 8 -2.6 8 0.2 24
DS -2.6 8 -2.6 -1.2 0.2 24
DS -4.095 -2.2 7.41 -2.2 0.05 24
DS 7.41 -2.2 7.41 9 0.05 24
DS 7.41 9 -4.095 9 0.05 24
DS -4.095 9 -4.095 -2.2 0.05 24
DS 6.41 -1.2 6.41 8 0.1 21
DS 6.41 8 -2.6 8 0.1 21
DS -2.6 8 -2.6 -1.2 0.1 21
DS -3.22 -0 -3.22 -0 0.050000000000000266 21
DS -3.17 -0 -3.17 -0 0.050000000000000266 21
DA -3.195 -0 -3.220 -0 -1800 0.050000000000000266 21
DA -3.195 -0 -3.170 -0 -1800 0.050000000000000266 21
$PAD
Po 0.000 -0
Sh "1" R 1.800 1.800 0 0 900
Dr 1.2 0 0
At STD N 00E0FFFF
Ne 0 ""
$EndPAD
$PAD
Po 3.810 -0
Sh "2" C 1.800 1.800 0 0 900
Dr 1.2 0 0
At STD N 00E0FFFF
Ne 0 ""
$EndPAD
$EndMODULE 1803277
$EndLIBRARY
