PCBNEW-LibModule-V1  2023-07-28 13:28:25
# encoding utf-8
Units mm
$INDEX
CAPAE430X550N
$EndINDEX
$MODULE CAPAE430X550N
Po 0 0 0 15 64c3b469 00000000 ~~
Li CAPAE430X550N
Cd 4 × 5.4
Kw Capacitor Polarised
Sc 0
At SMD
AR 
Op 0 0 0
T0 0 0 1.27 1.27 0 0.254 N V 21 N "C**"
T1 0 0 1.27 1.27 0 0.254 N I 21 N "CAPAE430X550N"
DS -3.625 -2.75 3.625 -2.75 0.05 24
DS 3.625 -2.75 3.625 2.75 0.05 24
DS 3.625 2.75 -3.625 2.75 0.05 24
DS -3.625 2.75 -3.625 -2.75 0.05 24
DS 2.15 -2.15 -1.075 -2.15 0.1 24
DS -1.075 -2.15 -2.15 -1.075 0.1 24
DS -2.15 -1.075 -2.15 1.075 0.1 24
DS -2.15 1.075 -1.075 2.15 0.1 24
DS -1.075 2.15 2.15 2.15 0.1 24
DS 2.15 2.15 2.15 -2.15 0.1 24
DS -3.125 -2.15 2.15 -2.15 0.2 21
DS -1.075 2.15 2.15 2.15 0.2 21
$PAD
Po -1.75 0
Sh "1" R 1.85 2.75 0 0 900
At SMD N 00888000
Ne 0 ""
$EndPAD
$PAD
Po 1.75 0
Sh "2" R 1.85 2.75 0 0 900
At SMD N 00888000
Ne 0 ""
$EndPAD
$EndMODULE CAPAE430X550N
$EndLIBRARY
