(kicad_symbol_lib (version 20211014) (generator SamacSys_ECAD_Model)
  (symbol "UWX1C100MCL1GB" (in_bom yes) (on_board yes) (pin_names hide)
    (property "Reference" "C" (at 8.89 6.35 0)
      (effects (font (size 1.27 1.27)) (justify left top))
    )
    (property "Value" "UWX1C100MCL1GB" (at 8.89 3.81 0)
      (effects (font (size 1.27 1.27)) (justify left top))
    )
    (property "Footprint" "CAPAE430X550N" (at 8.89 -96.19 0)
      (effects (font (size 1.27 1.27)) (justify left top) hide)
    )
    (property "Datasheet" "http://www.nichicon.co.jp/english/products/pdfs/e-uwx.pdf" (at 8.89 -196.19 0)
      (effects (font (size 1.27 1.27)) (justify left top) hide)
    )
    (property "ki_description" "Nichicon Aluminium Electrolytic Capacitor 10uF 16V dc 4mm WX Series, Surface Mount Electrolytic, +/-20% 4 (Dia.) x 5.4mm" (at 8.89 -296.19 0)
      (effects (font (size 1.27 1.27)) (justify left top) hide)
    )
    (property "Height" "5.5" (at 8.89 -396.19 0)
      (effects (font (size 1.27 1.27)) (justify left top) hide)
    )
    (property "Mouser Part Number" "647-UWX1C100MCL1" (at 8.89 -496.19 0)
      (effects (font (size 1.27 1.27)) (justify left top) hide)
    )
    (property "Mouser Price/Stock" "https://www.mouser.co.uk/ProductDetail/Nichicon/UWX1C100MCL1GB?qs=Wj%2FVkw3K%252BMAlh4MaGH0ubA%3D%3D" (at 8.89 -596.19 0)
      (effects (font (size 1.27 1.27)) (justify left top) hide)
    )
    (property "Manufacturer_Name" "Nichicon" (at 8.89 -696.19 0)
      (effects (font (size 1.27 1.27)) (justify left top) hide)
    )
    (property "Manufacturer_Part_Number" "UWX1C100MCL1GB" (at 8.89 -796.19 0)
      (effects (font (size 1.27 1.27)) (justify left top) hide)
    )
    (rectangle
      (start 5.08 2.54)
      (end 5.842 -2.54)
      (stroke (width 0.254) (type default))
      (fill (type background))
    )
    (polyline
      (pts
        (xy 4.572 1.27)
        (xy 3.556 1.27)
      )
      (stroke (width 0.254) (type default))
      (fill (type none))
    )
    (polyline
      (pts
        (xy 4.064 1.778)
        (xy 4.064 0.762)
      )
      (stroke (width 0.254) (type default))
      (fill (type none))
    )
    (polyline
      (pts
        (xy 2.54 0)
        (xy 5.08 0)
      )
      (stroke (width 0.254) (type default))
      (fill (type none))
    )
    (polyline
      (pts
        (xy 7.62 0)
        (xy 10.16 0)
      )
      (stroke (width 0.254) (type default))
      (fill (type none))
    )
    (polyline
      (pts
        (xy 7.62 2.54)
        (xy 7.62 -2.54)
        (xy 6.858 -2.54)
        (xy 6.858 2.54)
        (xy 7.62 2.54)
      )
      (stroke (width 0.254) (type default))
      (fill (type outline))
    )
    (pin passive line (at 0 0 0) (length 2.54)
      (name "+" (effects (font (size 1.27 1.27))))
      (number "1" (effects (font (size 1.27 1.27))))
    )
    (pin passive line (at 12.7 0 180) (length 2.54)
      (name "-" (effects (font (size 1.27 1.27))))
      (number "2" (effects (font (size 1.27 1.27))))
    )
  )
)
