PCBNEW-LibModule-V1  2024-06-21 13:39:34
# encoding utf-8
Units mm
$INDEX
ESP32S3WROOM1N16R8
$EndINDEX
$MODULE ESP32S3WROOM1N16R8
Po 0 0 0 15 66757486 00000000 ~~
Li ESP32S3WROOM1N16R8
Cd ESP32-S3-WROOM-1-N16R8-5
Kw Integrated Circuit
Sc 0
At SMD
AR 
Op 0 0 0
T0 0.000 0.25 1.27 1.27 0 0.254 N V 21 N "IC**"
T1 0.000 0.25 1.27 1.27 0 0.254 N I 21 N "ESP32S3WROOM1N16R8"
DS -9 -12.75 9 -12.75 0.1 24
DS 9 -12.75 9 12.75 0.1 24
DS 9 12.75 -9 12.75 0.1 24
DS -9 12.75 -9 -12.75 0.1 24
DS -10.5 -13.75 10.5 -13.75 0.1 24
DS 10.5 -13.75 10.5 14.25 0.1 24
DS 10.5 14.25 -10.5 14.25 0.1 24
DS -10.5 14.25 -10.5 -13.75 0.1 24
DS -9.9 -5.26 -9.9 -5.26 0.1 21
DS -10 -5.26 -10 -5.26 0.1 21
DS -9 -6 -9 -12.75 0.2 21
DS -9 -12.75 9 -12.75 0.2 21
DS 9 -12.75 9 -6 0.2 21
DA -9.95 -5.26 -9.900 -5.26 -1800 0.1 21
DA -9.95 -5.26 -10.000 -5.26 -1800 0.1 21
$PAD
Po -8.750 -5.26
Sh "1" R 0.900 1.500 0 0 900
At SMD N 00888000
Ne 0 ""
$EndPAD
$PAD
Po -8.750 -3.99
Sh "2" R 0.900 1.500 0 0 900
At SMD N 00888000
Ne 0 ""
$EndPAD
$PAD
Po -8.750 -2.72
Sh "3" R 0.900 1.500 0 0 900
At SMD N 00888000
Ne 0 ""
$EndPAD
$PAD
Po -8.750 -1.45
Sh "4" R 0.900 1.500 0 0 900
At SMD N 00888000
Ne 0 ""
$EndPAD
$PAD
Po -8.750 -0.18
Sh "5" R 0.900 1.500 0 0 900
At SMD N 00888000
Ne 0 ""
$EndPAD
$PAD
Po -8.750 1.09
Sh "6" R 0.900 1.500 0 0 900
At SMD N 00888000
Ne 0 ""
$EndPAD
$PAD
Po -8.750 2.36
Sh "7" R 0.900 1.500 0 0 900
At SMD N 00888000
Ne 0 ""
$EndPAD
$PAD
Po -8.750 3.63
Sh "8" R 0.900 1.500 0 0 900
At SMD N 00888000
Ne 0 ""
$EndPAD
$PAD
Po -8.750 4.9
Sh "9" R 0.900 1.500 0 0 900
At SMD N 00888000
Ne 0 ""
$EndPAD
$PAD
Po -8.750 6.17
Sh "10" R 0.900 1.500 0 0 900
At SMD N 00888000
Ne 0 ""
$EndPAD
$PAD
Po -8.750 7.44
Sh "11" R 0.900 1.500 0 0 900
At SMD N 00888000
Ne 0 ""
$EndPAD
$PAD
Po -8.750 8.71
Sh "12" R 0.900 1.500 0 0 900
At SMD N 00888000
Ne 0 ""
$EndPAD
$PAD
Po -8.750 9.98
Sh "13" R 0.900 1.500 0 0 900
At SMD N 00888000
Ne 0 ""
$EndPAD
$PAD
Po -8.750 11.25
Sh "14" R 0.900 1.500 0 0 900
At SMD N 00888000
Ne 0 ""
$EndPAD
$PAD
Po -6.985 12.5
Sh "15" R 0.900 1.500 0 0 0
At SMD N 00888000
Ne 0 ""
$EndPAD
$PAD
Po -5.715 12.5
Sh "16" R 0.900 1.500 0 0 0
At SMD N 00888000
Ne 0 ""
$EndPAD
$PAD
Po -4.445 12.5
Sh "17" R 0.900 1.500 0 0 0
At SMD N 00888000
Ne 0 ""
$EndPAD
$PAD
Po -3.175 12.5
Sh "18" R 0.900 1.500 0 0 0
At SMD N 00888000
Ne 0 ""
$EndPAD
$PAD
Po -1.905 12.5
Sh "19" R 0.900 1.500 0 0 0
At SMD N 00888000
Ne 0 ""
$EndPAD
$PAD
Po -0.635 12.5
Sh "20" R 0.900 1.500 0 0 0
At SMD N 00888000
Ne 0 ""
$EndPAD
$PAD
Po 0.635 12.5
Sh "21" R 0.900 1.500 0 0 0
At SMD N 00888000
Ne 0 ""
$EndPAD
$PAD
Po 1.905 12.5
Sh "22" R 0.900 1.500 0 0 0
At SMD N 00888000
Ne 0 ""
$EndPAD
$PAD
Po 3.175 12.5
Sh "23" R 0.900 1.500 0 0 0
At SMD N 00888000
Ne 0 ""
$EndPAD
$PAD
Po 4.445 12.5
Sh "24" R 0.900 1.500 0 0 0
At SMD N 00888000
Ne 0 ""
$EndPAD
$PAD
Po 5.715 12.5
Sh "25" R 0.900 1.500 0 0 0
At SMD N 00888000
Ne 0 ""
$EndPAD
$PAD
Po 6.985 12.5
Sh "26" R 0.900 1.500 0 0 0
At SMD N 00888000
Ne 0 ""
$EndPAD
$PAD
Po 8.750 11.25
Sh "27" R 0.900 1.500 0 0 900
At SMD N 00888000
Ne 0 ""
$EndPAD
$PAD
Po 8.750 9.98
Sh "28" R 0.900 1.500 0 0 900
At SMD N 00888000
Ne 0 ""
$EndPAD
$PAD
Po 8.750 8.71
Sh "29" R 0.900 1.500 0 0 900
At SMD N 00888000
Ne 0 ""
$EndPAD
$PAD
Po 8.750 7.44
Sh "30" R 0.900 1.500 0 0 900
At SMD N 00888000
Ne 0 ""
$EndPAD
$PAD
Po 8.750 6.17
Sh "31" R 0.900 1.500 0 0 900
At SMD N 00888000
Ne 0 ""
$EndPAD
$PAD
Po 8.750 4.9
Sh "32" R 0.900 1.500 0 0 900
At SMD N 00888000
Ne 0 ""
$EndPAD
$PAD
Po 8.750 3.63
Sh "33" R 0.900 1.500 0 0 900
At SMD N 00888000
Ne 0 ""
$EndPAD
$PAD
Po 8.750 2.36
Sh "34" R 0.900 1.500 0 0 900
At SMD N 00888000
Ne 0 ""
$EndPAD
$PAD
Po 8.750 1.09
Sh "35" R 0.900 1.500 0 0 900
At SMD N 00888000
Ne 0 ""
$EndPAD
$PAD
Po 8.750 -0.18
Sh "36" R 0.900 1.500 0 0 900
At SMD N 00888000
Ne 0 ""
$EndPAD
$PAD
Po 8.750 -1.45
Sh "37" R 0.900 1.500 0 0 900
At SMD N 00888000
Ne 0 ""
$EndPAD
$PAD
Po 8.750 -2.72
Sh "38" R 0.900 1.500 0 0 900
At SMD N 00888000
Ne 0 ""
$EndPAD
$PAD
Po 8.750 -3.99
Sh "39" R 0.900 1.500 0 0 900
At SMD N 00888000
Ne 0 ""
$EndPAD
$PAD
Po 8.750 -5.26
Sh "40" R 0.900 1.500 0 0 900
At SMD N 00888000
Ne 0 ""
$EndPAD
$PAD
Po -1.500 2.46
Sh "41" R 0.900 0.900 0 0 0
At SMD N 00888000
Ne 0 ""
$EndPAD
$PAD
Po -2.900 1.06
Sh "42" R 0.900 0.900 0 0 0
At SMD N 00888000
Ne 0 ""
$EndPAD
$PAD
Po -2.900 2.46
Sh "43" R 0.900 0.900 0 0 0
At SMD N 00888000
Ne 0 ""
$EndPAD
$PAD
Po -2.900 3.86
Sh "44" R 0.900 0.900 0 0 0
At SMD N 00888000
Ne 0 ""
$EndPAD
$PAD
Po -1.500 3.86
Sh "45" R 0.900 0.900 0 0 0
At SMD N 00888000
Ne 0 ""
$EndPAD
$PAD
Po -0.100 3.86
Sh "46" R 0.900 0.900 0 0 0
At SMD N 00888000
Ne 0 ""
$EndPAD
$PAD
Po -0.100 2.46
Sh "47" R 0.900 0.900 0 0 0
At SMD N 00888000
Ne 0 ""
$EndPAD
$PAD
Po -0.100 1.06
Sh "48" R 0.900 0.900 0 0 0
At SMD N 00888000
Ne 0 ""
$EndPAD
$PAD
Po -1.500 1.06
Sh "49" R 0.900 0.900 0 0 0
At SMD N 00888000
Ne 0 ""
$EndPAD
$EndMODULE ESP32S3WROOM1N16R8
$EndLIBRARY
