PCBNEW-LibModule-V1  2024-06-24 18:13:18
# encoding utf-8
Units mm
$INDEX
SP0503BAHTG
$EndINDEX
$MODULE SP0503BAHTG
Po 0 0 0 15 6679a92e 00000000 ~~
Li SP0503BAHTG
Cd SP0503BAHTG-1
Kw TVS Diode (Uni-directional)
Sc 0
At SMD
AR 
Op 0 0 0
T0 0.000 0.3 1.27 1.27 0 0.254 N V 21 N "D**"
T1 0.000 0.3 1.27 1.27 0 0.254 N I 21 N "SP0503BAHTG"
DS -1.46 -0.65 1.46 -0.65 0.2 24
DS 1.46 -0.65 1.46 0.65 0.2 24
DS 1.46 0.65 -1.46 0.65 0.2 24
DS -1.46 0.65 -1.46 -0.65 0.2 24
DS -2.46 -2.8 2.46 -2.8 0.1 24
DS 2.46 -2.8 2.46 3.4 0.1 24
DS 2.46 3.4 -2.46 3.4 0.1 24
DS -2.46 3.4 -2.46 -2.8 0.1 24
DS -1 2.4 -1 2.4 0.1 21
DS -1 2.3 -1 2.3 0.1 21
DA -1 2.35 -1.000 2.4 -1800 0.1 21
DA -1 2.35 -1.000 2.3 -1800 0.1 21
$PAD
Po -0.750 1.1
Sh "1" R 1.100 1.400 0 0 0
At SMD N 00888000
Ne 0 ""
$EndPAD
$PAD
Po 0.950 1.1
Sh "2" R 0.900 1.400 0 0 0
At SMD N 00888000
Ne 0 ""
$EndPAD
$PAD
Po 0.950 -1.1
Sh "3" R 0.900 1.400 0 0 0
At SMD N 00888000
Ne 0 ""
$EndPAD
$PAD
Po -0.950 -1.1
Sh "4" R 0.900 1.400 0 0 0
At SMD N 00888000
Ne 0 ""
$EndPAD
$EndMODULE SP0503BAHTG
$EndLIBRARY
