!PADS-POWERPCB-V9.5-METRIC! DESIGN DATABASE ASCII FILE 1.0
*PARTDECAL*  ITEMS

1803277 M 0 0 6 2 2 0 2
CLOSED 5 0.2 0 27
-2.600 1.200
6.410 1.200
6.410 -8.000
-2.600 -8.000
-2.600 1.200
CLOSED 5 0.05 0 20
-4.095 2.200
7.410 2.200
7.410 -9.000
-4.095 -9.000
-4.095 2.200
OPEN 2 0.1 0 26
6.410 1.200
6.410 -8.000
OPEN 2 0.1 0 26
6.410 -8.000
-2.600 -8.000
OPEN 2 0.1 0 26
-2.600 -8.000
-2.600 1.200
CLOSED 5 0.050000000000000266 0 26
-3.220 0.000
-3.220 0.000 -1800 1800 -3.220 -0.025 -3.170 0.025
-3.170 0.000
-3.170 0.000 0 1800 -3.220 -0.025 -3.170 0.025
-3.220 0.000
VALUE 1.657 -3.400 0 1 1.27 0.127 N LEFT DOWN
Regular <Romansim Stroke Font>
Ref.Des.
VALUE 1.657 -3.400 0 1 1.27 0.127 N LEFT UP
Regular <Romansim Stroke Font>
Part Type
T0.000 0.000 0.000 0.000 1
T3.810 0.000 3.810 0.000 2
PAD 0 3
-2 1.800 S 0.000 1.2
-1 1.800 S 0.000
0 1.800 S 0.000
PAD 2 3
-2 1.800 R 1.2
-1 1.800 R
0 1.800 R

*END*     OF ASCII OUTPUT FILE
