PCBNEW-LibModule-V1  2023-07-28 14:20:36
# encoding utf-8
Units mm
$INDEX
CAPAE630X610N
$EndINDEX
$MODULE CAPAE630X610N
Po 0 0 0 15 64c3c0a4 00000000 ~~
Li CAPAE630X610N
Cd AFK106M50D16T-F
Kw Capacitor Polarised
Sc 0
At SMD
AR 
Op 0 0 0
T0 0 0 1.27 1.27 0 0.254 N V 21 N "C**"
T1 0 0 1.27 1.27 0 0.254 N I 21 N "CAPAE630X610N"
DS -5.2 -3.9 5.2 -3.9 0.05 24
DS 5.2 -3.9 5.2 3.9 0.05 24
DS 5.2 3.9 -5.2 3.9 0.05 24
DS -5.2 3.9 -5.2 -3.9 0.05 24
DS 3.15 -3.15 -1.575 -3.15 0.1 24
DS -1.575 -3.15 -3.15 -1.575 0.1 24
DS -3.15 -1.575 -3.15 1.575 0.1 24
DS -3.15 1.575 -1.575 3.15 0.1 24
DS -1.575 3.15 3.15 3.15 0.1 24
DS 3.15 3.15 3.15 -3.15 0.1 24
DS -4.7 -3.15 3.15 -3.15 0.2 21
DS -1.575 3.15 3.15 3.15 0.2 21
$PAD
Po -3 0
Sh "1" R 1.8 3.4 0 0 900
At SMD N 00888000
Ne 0 ""
$EndPAD
$PAD
Po 3 0
Sh "2" R 1.8 3.4 0 0 900
At SMD N 00888000
Ne 0 ""
$EndPAD
$EndMODULE CAPAE630X610N
$EndLIBRARY
