(module "CAPAE630X610N" (layer F.Cu)
  (descr "AFK106M50D16T-F")
  (tags "Capacitor Polarised")
  (attr smd)
  (fp_text reference C** (at 0 0) (layer F.SilkS)
    (effects (font (size 1.27 1.27) (thickness 0.254)))
  )
  (fp_text user %R (at 0 0) (layer F.Fab)
    (effects (font (size 1.27 1.27) (thickness 0.254)))
  )
  (fp_text value "CAPAE630X610N" (at 0 0) (layer F.SilkS) hide
    (effects (font (size 1.27 1.27) (thickness 0.254)))
  )
  (fp_line (start -5.2 -3.9) (end 5.2 -3.9) (layer F.CrtYd) (width 0.05))
  (fp_line (start 5.2 -3.9) (end 5.2 3.9) (layer F.CrtYd) (width 0.05))
  (fp_line (start 5.2 3.9) (end -5.2 3.9) (layer F.CrtYd) (width 0.05))
  (fp_line (start -5.2 3.9) (end -5.2 -3.9) (layer F.CrtYd) (width 0.05))
  (fp_line (start 3.15 -3.15) (end -1.575 -3.15) (layer F.Fab) (width 0.1))
  (fp_line (start -1.575 -3.15) (end -3.15 -1.575) (layer F.Fab) (width 0.1))
  (fp_line (start -3.15 -1.575) (end -3.15 1.575) (layer F.Fab) (width 0.1))
  (fp_line (start -3.15 1.575) (end -1.575 3.15) (layer F.Fab) (width 0.1))
  (fp_line (start -1.575 3.15) (end 3.15 3.15) (layer F.Fab) (width 0.1))
  (fp_line (start 3.15 3.15) (end 3.15 -3.15) (layer F.Fab) (width 0.1))
  (fp_line (start -4.7 -3.15) (end 3.15 -3.15) (layer F.SilkS) (width 0.2))
  (fp_line (start -1.575 3.15) (end 3.15 3.15) (layer F.SilkS) (width 0.2))
  (pad 1 smd rect (at -3 0 90) (size 1.8 3.4) (layers F.Cu F.Paste F.Mask))
  (pad 2 smd rect (at 3 0 90) (size 1.8 3.4) (layers F.Cu F.Paste F.Mask))
  (model AFK106M50D16T-F.stp
    (at (xyz 0 0 0))
    (scale (xyz 1 1 1))
    (rotate (xyz 0 0 0))
  )
)
