PCBNEW-LibModule-V1  2023-05-05 19:16:02
# encoding utf-8
Units mm
$INDEX
SHDR3W50P0X200_1X3_800X470X635P
$EndINDEX
$MODULE SHDR3W50P0X200_1X3_800X470X635P
Po 0 0 0 15 645547e2 00000000 ~~
Li SHDR3W50P0X200_1X3_800X470X635P
Cd 440054-3
Kw Connector
Sc 0
At STD
AR 
Op 0 0 0
T0 0 0 1.27 1.27 0 0.254 N V 21 N "J**"
T1 0 0 1.27 1.27 0 0.254 N I 21 N "SHDR3W50P0X200_1X3_800X470X635P"
DS -2.25 2.2 -2.25 -3.3 0.05 24
DS -2.25 -3.3 6.55 -3.3 0.05 24
DS 6.55 -3.3 6.55 2.2 0.05 24
DS 6.55 2.2 -2.25 2.2 0.05 24
DS -2 1.95 -2 -3.05 0.1 24
DS -2 -3.05 6.3 -3.05 0.1 24
DS 6.3 -3.05 6.3 1.95 0.1 24
DS 6.3 1.95 -2 1.95 0.1 24
DS 0 1.95 6.3 1.95 0.2 21
DS 6.3 1.95 6.3 -3.05 0.2 21
DS 6.3 -3.05 -2 -3.05 0.2 21
DS -2 -3.05 -2 0 0.2 21
$PAD
Po 0 0
Sh "1" R 1.35 1.35 0 0 900
Dr 0.9 0 0
At STD N 00E0FFFF
Ne 0 ""
$EndPAD
$PAD
Po 2 0
Sh "2" C 1.35 1.35 0 0 900
Dr 0.9 0 0
At STD N 00E0FFFF
Ne 0 ""
$EndPAD
$PAD
Po 4 0
Sh "3" C 1.35 1.35 0 0 900
Dr 0.9 0 0
At STD N 00E0FFFF
Ne 0 ""
$EndPAD
$EndMODULE SHDR3W50P0X200_1X3_800X470X635P
$EndLIBRARY
