ISO-10303-21;
HEADER;
/* Generated by software containing ST-Developer
 * from STEP Tools, Inc. (www.steptools.com) 
 */
/* OPTION: strings as raw bytes, not using required /X/ escapes */

FILE_DESCRIPTION(
/* description */ ('Unknown'),
/* implementation_level */ '2;1');

FILE_NAME(
/* name */ 'SB560',
/* time_stamp */ '2023-07-20T13:39:01+02:00',
/* author */ ('Unknown'),
/* organization */ ('Unknown'),
/* preprocessor_version */ 'ST-DEVELOPER v18.102',
/* originating_system */ 'Solid Edge',
/* authorisation */ 'Unknown');

FILE_SCHEMA (('AUTOMOTIVE_DESIGN {1 0 10303 214 3 1 1}'));
ENDSEC;

DATA;
#10=PROPERTY_DEFINITION_REPRESENTATION(#14,#12);
#11=PROPERTY_DEFINITION_REPRESENTATION(#15,#13);
#12=REPRESENTATION('',(#16),#479);
#13=REPRESENTATION('',(#17),#479);
#14=PROPERTY_DEFINITION('pmi validation property','',#484);
#15=PROPERTY_DEFINITION('pmi validation property','',#484);
#16=VALUE_REPRESENTATION_ITEM('number of annotations',COUNT_MEASURE(0.));
#17=VALUE_REPRESENTATION_ITEM('number of views',COUNT_MEASURE(0.));
#18=SHAPE_REPRESENTATION_RELATIONSHIP('','',#325,#19);
#19=ADVANCED_BREP_SHAPE_REPRESENTATION('',(#323),#479);
#20=TOROIDAL_SURFACE('',#344,2.475,0.0500000000000001);
#21=TOROIDAL_SURFACE('',#359,2.47,0.0500000000000001);
#22=CONICAL_SURFACE('',#341,0.635,0.785398163397445);
#23=CONICAL_SURFACE('',#352,0.635,0.785398163397446);
#24=DRAUGHTING_PRE_DEFINED_COLOUR('black');
#25=PLANE('',#330);
#26=PLANE('',#333);
#27=PLANE('',#337);
#28=PLANE('',#339);
#29=PLANE('',#347);
#30=PLANE('',#350);
#31=PLANE('',#356);
#32=ORIENTED_EDGE('',*,*,#64,.F.);
#33=ORIENTED_EDGE('',*,*,#65,.T.);
#34=ORIENTED_EDGE('',*,*,#66,.T.);
#35=ORIENTED_EDGE('',*,*,#67,.T.);
#36=ORIENTED_EDGE('',*,*,#68,.T.);
#37=ORIENTED_EDGE('',*,*,#64,.T.);
#38=ORIENTED_EDGE('',*,*,#69,.T.);
#39=ORIENTED_EDGE('',*,*,#67,.F.);
#40=ORIENTED_EDGE('',*,*,#70,.T.);
#41=ORIENTED_EDGE('',*,*,#69,.F.);
#42=ORIENTED_EDGE('',*,*,#71,.T.);
#43=ORIENTED_EDGE('',*,*,#71,.F.);
#44=ORIENTED_EDGE('',*,*,#72,.F.);
#45=ORIENTED_EDGE('',*,*,#72,.T.);
#46=ORIENTED_EDGE('',*,*,#70,.F.);
#47=ORIENTED_EDGE('',*,*,#66,.F.);
#48=ORIENTED_EDGE('',*,*,#65,.F.);
#49=ORIENTED_EDGE('',*,*,#73,.T.);
#50=ORIENTED_EDGE('',*,*,#68,.F.);
#51=ORIENTED_EDGE('',*,*,#74,.T.);
#52=ORIENTED_EDGE('',*,*,#75,.T.);
#53=ORIENTED_EDGE('',*,*,#76,.T.);
#54=ORIENTED_EDGE('',*,*,#76,.F.);
#55=ORIENTED_EDGE('',*,*,#77,.F.);
#56=ORIENTED_EDGE('',*,*,#77,.T.);
#57=ORIENTED_EDGE('',*,*,#78,.F.);
#58=ORIENTED_EDGE('',*,*,#78,.T.);
#59=ORIENTED_EDGE('',*,*,#79,.F.);
#60=ORIENTED_EDGE('',*,*,#79,.T.);
#61=ORIENTED_EDGE('',*,*,#75,.F.);
#62=ORIENTED_EDGE('',*,*,#74,.F.);
#63=ORIENTED_EDGE('',*,*,#73,.F.);
#64=EDGE_CURVE('',#80,#80,#96,.T.);
#65=EDGE_CURVE('',#81,#81,#97,.T.);
#66=EDGE_CURVE('',#82,#82,#98,.F.);
#67=EDGE_CURVE('',#83,#83,#99,.T.);
#68=EDGE_CURVE('',#84,#84,#100,.T.);
#69=EDGE_CURVE('',#85,#85,#101,.T.);
#70=EDGE_CURVE('',#86,#86,#102,.T.);
#71=EDGE_CURVE('',#87,#87,#103,.F.);
#72=EDGE_CURVE('',#88,#88,#104,.T.);
#73=EDGE_CURVE('',#89,#89,#105,.T.);
#74=EDGE_CURVE('',#90,#90,#106,.F.);
#75=EDGE_CURVE('',#91,#91,#107,.T.);
#76=EDGE_CURVE('',#92,#92,#108,.F.);
#77=EDGE_CURVE('',#93,#93,#109,.T.);
#78=EDGE_CURVE('',#94,#94,#110,.T.);
#79=EDGE_CURVE('',#95,#95,#111,.T.);
#80=VERTEX_POINT('',#431);
#81=VERTEX_POINT('',#433);
#82=VERTEX_POINT('',#436);
#83=VERTEX_POINT('',#438);
#84=VERTEX_POINT('',#441);
#85=VERTEX_POINT('',#444);
#86=VERTEX_POINT('',#447);
#87=VERTEX_POINT('',#450);
#88=VERTEX_POINT('',#453);
#89=VERTEX_POINT('',#458);
#90=VERTEX_POINT('',#461);
#91=VERTEX_POINT('',#463);
#92=VERTEX_POINT('',#466);
#93=VERTEX_POINT('',#469);
#94=VERTEX_POINT('',#472);
#95=VERTEX_POINT('',#475);
#96=CIRCLE('',#328,2.525);
#97=CIRCLE('',#329,2.525);
#98=CIRCLE('',#331,2.475);
#99=CIRCLE('',#332,0.675);
#100=CIRCLE('',#334,2.52);
#101=CIRCLE('',#336,0.675);
#102=CIRCLE('',#338,0.635);
#103=CIRCLE('',#340,0.335);
#104=CIRCLE('',#342,0.635);
#105=CIRCLE('',#346,2.52);
#106=CIRCLE('',#348,2.47);
#107=CIRCLE('',#349,0.675);
#108=CIRCLE('',#351,0.335);
#109=CIRCLE('',#353,0.635);
#110=CIRCLE('',#355,0.635);
#111=CIRCLE('',#357,0.675);
#112=EDGE_LOOP('',(#32));
#113=EDGE_LOOP('',(#33));
#114=EDGE_LOOP('',(#34));
#115=EDGE_LOOP('',(#35));
#116=EDGE_LOOP('',(#36));
#117=EDGE_LOOP('',(#37));
#118=EDGE_LOOP('',(#38));
#119=EDGE_LOOP('',(#39));
#120=EDGE_LOOP('',(#40));
#121=EDGE_LOOP('',(#41));
#122=EDGE_LOOP('',(#42));
#123=EDGE_LOOP('',(#43));
#124=EDGE_LOOP('',(#44));
#125=EDGE_LOOP('',(#45));
#126=EDGE_LOOP('',(#46));
#127=EDGE_LOOP('',(#47));
#128=EDGE_LOOP('',(#48));
#129=EDGE_LOOP('',(#49));
#130=EDGE_LOOP('',(#50));
#131=EDGE_LOOP('',(#51));
#132=EDGE_LOOP('',(#52));
#133=EDGE_LOOP('',(#53));
#134=EDGE_LOOP('',(#54));
#135=EDGE_LOOP('',(#55));
#136=EDGE_LOOP('',(#56));
#137=EDGE_LOOP('',(#57));
#138=EDGE_LOOP('',(#58));
#139=EDGE_LOOP('',(#59));
#140=EDGE_LOOP('',(#60));
#141=EDGE_LOOP('',(#61));
#142=EDGE_LOOP('',(#62));
#143=EDGE_LOOP('',(#63));
#144=FACE_BOUND('',#112,.T.);
#145=FACE_BOUND('',#113,.T.);
#146=FACE_BOUND('',#114,.T.);
#147=FACE_BOUND('',#115,.T.);
#148=FACE_BOUND('',#116,.T.);
#149=FACE_BOUND('',#117,.T.);
#150=FACE_BOUND('',#118,.T.);
#151=FACE_BOUND('',#119,.T.);
#152=FACE_BOUND('',#120,.T.);
#153=FACE_BOUND('',#121,.T.);
#154=FACE_BOUND('',#122,.T.);
#155=FACE_BOUND('',#123,.T.);
#156=FACE_BOUND('',#124,.T.);
#157=FACE_BOUND('',#125,.T.);
#158=FACE_BOUND('',#126,.T.);
#159=FACE_BOUND('',#127,.T.);
#160=FACE_BOUND('',#128,.T.);
#161=FACE_BOUND('',#129,.T.);
#162=FACE_BOUND('',#130,.T.);
#163=FACE_BOUND('',#131,.T.);
#164=FACE_BOUND('',#132,.T.);
#165=FACE_BOUND('',#133,.T.);
#166=FACE_BOUND('',#134,.T.);
#167=FACE_BOUND('',#135,.T.);
#168=FACE_BOUND('',#136,.T.);
#169=FACE_BOUND('',#137,.T.);
#170=FACE_BOUND('',#138,.T.);
#171=FACE_BOUND('',#139,.T.);
#172=FACE_BOUND('',#140,.T.);
#173=FACE_BOUND('',#141,.T.);
#174=FACE_BOUND('',#142,.T.);
#175=FACE_BOUND('',#143,.T.);
#176=CYLINDRICAL_SURFACE('',#327,2.525);
#177=CYLINDRICAL_SURFACE('',#335,0.675);
#178=CYLINDRICAL_SURFACE('',#343,0.635);
#179=CYLINDRICAL_SURFACE('',#345,2.52);
#180=CYLINDRICAL_SURFACE('',#354,0.635);
#181=CYLINDRICAL_SURFACE('',#358,0.675);
#182=STYLED_ITEM('',(#199),#305);
#183=STYLED_ITEM('',(#200),#306);
#184=STYLED_ITEM('',(#201),#307);
#185=STYLED_ITEM('',(#202),#308);
#186=STYLED_ITEM('',(#203),#309);
#187=STYLED_ITEM('',(#204),#310);
#188=STYLED_ITEM('',(#205),#311);
#189=STYLED_ITEM('',(#206),#312);
#190=STYLED_ITEM('',(#207),#313);
#191=STYLED_ITEM('',(#208),#314);
#192=STYLED_ITEM('',(#209),#315);
#193=STYLED_ITEM('',(#210),#316);
#194=STYLED_ITEM('',(#211),#317);
#195=STYLED_ITEM('',(#212),#318);
#196=STYLED_ITEM('',(#213),#319);
#197=STYLED_ITEM('',(#214),#320);
#198=STYLED_ITEM('',(#215),#321);
#199=PRESENTATION_STYLE_ASSIGNMENT((#216));
#200=PRESENTATION_STYLE_ASSIGNMENT((#217));
#201=PRESENTATION_STYLE_ASSIGNMENT((#218));
#202=PRESENTATION_STYLE_ASSIGNMENT((#219));
#203=PRESENTATION_STYLE_ASSIGNMENT((#220));
#204=PRESENTATION_STYLE_ASSIGNMENT((#221));
#205=PRESENTATION_STYLE_ASSIGNMENT((#222));
#206=PRESENTATION_STYLE_ASSIGNMENT((#223));
#207=PRESENTATION_STYLE_ASSIGNMENT((#224));
#208=PRESENTATION_STYLE_ASSIGNMENT((#225));
#209=PRESENTATION_STYLE_ASSIGNMENT((#226));
#210=PRESENTATION_STYLE_ASSIGNMENT((#227));
#211=PRESENTATION_STYLE_ASSIGNMENT((#228));
#212=PRESENTATION_STYLE_ASSIGNMENT((#229));
#213=PRESENTATION_STYLE_ASSIGNMENT((#230));
#214=PRESENTATION_STYLE_ASSIGNMENT((#231));
#215=PRESENTATION_STYLE_ASSIGNMENT((#232));
#216=SURFACE_STYLE_USAGE(.BOTH.,#233);
#217=SURFACE_STYLE_USAGE(.BOTH.,#234);
#218=SURFACE_STYLE_USAGE(.BOTH.,#235);
#219=SURFACE_STYLE_USAGE(.BOTH.,#236);
#220=SURFACE_STYLE_USAGE(.BOTH.,#237);
#221=SURFACE_STYLE_USAGE(.BOTH.,#238);
#222=SURFACE_STYLE_USAGE(.BOTH.,#239);
#223=SURFACE_STYLE_USAGE(.BOTH.,#240);
#224=SURFACE_STYLE_USAGE(.BOTH.,#241);
#225=SURFACE_STYLE_USAGE(.BOTH.,#242);
#226=SURFACE_STYLE_USAGE(.BOTH.,#243);
#227=SURFACE_STYLE_USAGE(.BOTH.,#244);
#228=SURFACE_STYLE_USAGE(.BOTH.,#245);
#229=SURFACE_STYLE_USAGE(.BOTH.,#246);
#230=SURFACE_STYLE_USAGE(.BOTH.,#247);
#231=SURFACE_STYLE_USAGE(.BOTH.,#248);
#232=SURFACE_STYLE_USAGE(.BOTH.,#249);
#233=SURFACE_SIDE_STYLE('',(#250));
#234=SURFACE_SIDE_STYLE('',(#251));
#235=SURFACE_SIDE_STYLE('',(#252));
#236=SURFACE_SIDE_STYLE('',(#253));
#237=SURFACE_SIDE_STYLE('',(#254));
#238=SURFACE_SIDE_STYLE('',(#255));
#239=SURFACE_SIDE_STYLE('',(#256));
#240=SURFACE_SIDE_STYLE('',(#257));
#241=SURFACE_SIDE_STYLE('',(#258));
#242=SURFACE_SIDE_STYLE('',(#259));
#243=SURFACE_SIDE_STYLE('',(#260));
#244=SURFACE_SIDE_STYLE('',(#261));
#245=SURFACE_SIDE_STYLE('',(#262));
#246=SURFACE_SIDE_STYLE('',(#263));
#247=SURFACE_SIDE_STYLE('',(#264));
#248=SURFACE_SIDE_STYLE('',(#265));
#249=SURFACE_SIDE_STYLE('',(#266));
#250=SURFACE_STYLE_FILL_AREA(#267);
#251=SURFACE_STYLE_FILL_AREA(#268);
#252=SURFACE_STYLE_FILL_AREA(#269);
#253=SURFACE_STYLE_FILL_AREA(#270);
#254=SURFACE_STYLE_FILL_AREA(#271);
#255=SURFACE_STYLE_FILL_AREA(#272);
#256=SURFACE_STYLE_FILL_AREA(#273);
#257=SURFACE_STYLE_FILL_AREA(#274);
#258=SURFACE_STYLE_FILL_AREA(#275);
#259=SURFACE_STYLE_FILL_AREA(#276);
#260=SURFACE_STYLE_FILL_AREA(#277);
#261=SURFACE_STYLE_FILL_AREA(#278);
#262=SURFACE_STYLE_FILL_AREA(#279);
#263=SURFACE_STYLE_FILL_AREA(#280);
#264=SURFACE_STYLE_FILL_AREA(#281);
#265=SURFACE_STYLE_FILL_AREA(#282);
#266=SURFACE_STYLE_FILL_AREA(#283);
#267=FILL_AREA_STYLE('',(#284));
#268=FILL_AREA_STYLE('',(#285));
#269=FILL_AREA_STYLE('',(#286));
#270=FILL_AREA_STYLE('',(#287));
#271=FILL_AREA_STYLE('',(#288));
#272=FILL_AREA_STYLE('',(#289));
#273=FILL_AREA_STYLE('',(#290));
#274=FILL_AREA_STYLE('',(#291));
#275=FILL_AREA_STYLE('',(#292));
#276=FILL_AREA_STYLE('',(#293));
#277=FILL_AREA_STYLE('',(#294));
#278=FILL_AREA_STYLE('',(#295));
#279=FILL_AREA_STYLE('',(#296));
#280=FILL_AREA_STYLE('',(#297));
#281=FILL_AREA_STYLE('',(#298));
#282=FILL_AREA_STYLE('',(#299));
#283=FILL_AREA_STYLE('',(#300));
#284=FILL_AREA_STYLE_COLOUR('',#301);
#285=FILL_AREA_STYLE_COLOUR('',#301);
#286=FILL_AREA_STYLE_COLOUR('',#301);
#287=FILL_AREA_STYLE_COLOUR('',#301);
#288=FILL_AREA_STYLE_COLOUR('',#24);
#289=FILL_AREA_STYLE_COLOUR('',#302);
#290=FILL_AREA_STYLE_COLOUR('',#302);
#291=FILL_AREA_STYLE_COLOUR('',#302);
#292=FILL_AREA_STYLE_COLOUR('',#301);
#293=FILL_AREA_STYLE_COLOUR('',#303);
#294=FILL_AREA_STYLE_COLOUR('',#303);
#295=FILL_AREA_STYLE_COLOUR('',#302);
#296=FILL_AREA_STYLE_COLOUR('',#302);
#297=FILL_AREA_STYLE_COLOUR('',#302);
#298=FILL_AREA_STYLE_COLOUR('',#24);
#299=FILL_AREA_STYLE_COLOUR('',#301);
#300=FILL_AREA_STYLE_COLOUR('',#304);
#301=COLOUR_RGB('',0.200000002980232,0.200000002980232,0.200000002980232);
#302=COLOUR_RGB('',0.699999988079071,0.699999988079071,0.699999988079071);
#303=COLOUR_RGB('',0.5,0.5,0.5);
#304=COLOUR_RGB('',0.506983280181885,0.531564235687256,0.550000011920929);
#305=ADVANCED_FACE('',(#144,#145),#176,.T.);
#306=ADVANCED_FACE('',(#146,#147),#25,.F.);
#307=ADVANCED_FACE('',(#148,#149),#26,.T.);
#308=ADVANCED_FACE('',(#150,#151),#177,.F.);
#309=ADVANCED_FACE('',(#152,#153),#27,.F.);
#310=ADVANCED_FACE('',(#154),#28,.F.);
#311=ADVANCED_FACE('',(#155,#156),#22,.T.);
#312=ADVANCED_FACE('',(#157,#158),#178,.T.);
#313=ADVANCED_FACE('',(#159,#160),#20,.T.);
#314=ADVANCED_FACE('',(#161,#162),#179,.T.);
#315=ADVANCED_FACE('',(#163,#164),#29,.F.);
#316=ADVANCED_FACE('',(#165),#30,.F.);
#317=ADVANCED_FACE('',(#166,#167),#23,.T.);
#318=ADVANCED_FACE('',(#168,#169),#180,.T.);
#319=ADVANCED_FACE('',(#170,#171),#31,.F.);
#320=ADVANCED_FACE('',(#172,#173),#181,.F.);
#321=ADVANCED_FACE('',(#174,#175),#21,.T.);
#322=CLOSED_SHELL('',(#305,#306,#307,#308,#309,#310,#311,#312,#313,#314,
#315,#316,#317,#318,#319,#320,#321));
#323=MANIFOLD_SOLID_BREP('',#322);
#324=SHAPE_DEFINITION_REPRESENTATION(#484,#325);
#325=SHAPE_REPRESENTATION('SB560',(#326),#479);
#326=AXIS2_PLACEMENT_3D('',#428,#360,#361);
#327=AXIS2_PLACEMENT_3D('',#429,#362,#363);
#328=AXIS2_PLACEMENT_3D('',#430,#364,#365);
#329=AXIS2_PLACEMENT_3D('',#432,#366,#367);
#330=AXIS2_PLACEMENT_3D('',#434,#368,#369);
#331=AXIS2_PLACEMENT_3D('',#435,#370,#371);
#332=AXIS2_PLACEMENT_3D('',#437,#372,#373);
#333=AXIS2_PLACEMENT_3D('',#439,#374,#375);
#334=AXIS2_PLACEMENT_3D('',#440,#376,#377);
#335=AXIS2_PLACEMENT_3D('',#442,#378,#379);
#336=AXIS2_PLACEMENT_3D('',#443,#380,#381);
#337=AXIS2_PLACEMENT_3D('',#445,#382,#383);
#338=AXIS2_PLACEMENT_3D('',#446,#384,#385);
#339=AXIS2_PLACEMENT_3D('',#448,#386,#387);
#340=AXIS2_PLACEMENT_3D('',#449,#388,#389);
#341=AXIS2_PLACEMENT_3D('',#451,#390,#391);
#342=AXIS2_PLACEMENT_3D('',#452,#392,#393);
#343=AXIS2_PLACEMENT_3D('',#454,#394,#395);
#344=AXIS2_PLACEMENT_3D('',#455,#396,#397);
#345=AXIS2_PLACEMENT_3D('',#456,#398,#399);
#346=AXIS2_PLACEMENT_3D('',#457,#400,#401);
#347=AXIS2_PLACEMENT_3D('',#459,#402,#403);
#348=AXIS2_PLACEMENT_3D('',#460,#404,#405);
#349=AXIS2_PLACEMENT_3D('',#462,#406,#407);
#350=AXIS2_PLACEMENT_3D('',#464,#408,#409);
#351=AXIS2_PLACEMENT_3D('',#465,#410,#411);
#352=AXIS2_PLACEMENT_3D('',#467,#412,#413);
#353=AXIS2_PLACEMENT_3D('',#468,#414,#415);
#354=AXIS2_PLACEMENT_3D('',#470,#416,#417);
#355=AXIS2_PLACEMENT_3D('',#471,#418,#419);
#356=AXIS2_PLACEMENT_3D('',#473,#420,#421);
#357=AXIS2_PLACEMENT_3D('',#474,#422,#423);
#358=AXIS2_PLACEMENT_3D('',#476,#424,#425);
#359=AXIS2_PLACEMENT_3D('',#477,#426,#427);
#360=DIRECTION('',(0.,0.,1.));
#361=DIRECTION('',(1.,0.,0.));
#362=DIRECTION('',(-1.,0.,0.));
#363=DIRECTION('',(0.,0.,1.));
#364=DIRECTION('',(-1.,6.12303176911189E-17,0.));
#365=DIRECTION('',(-6.12303176911189E-17,-1.,0.));
#366=DIRECTION('',(-1.,6.12303176911189E-17,0.));
#367=DIRECTION('',(-6.12303176911189E-17,-1.,0.));
#368=DIRECTION('',(-1.,6.12303176911189E-17,0.));
#369=DIRECTION('',(-6.12303176911189E-17,-1.,0.));
#370=DIRECTION('',(-1.,6.12303176911189E-17,0.));
#371=DIRECTION('',(-6.12303176911189E-17,-1.,0.));
#372=DIRECTION('',(-1.,0.,0.));
#373=DIRECTION('',(0.,1.,0.));
#374=DIRECTION('',(-1.,6.12303176911189E-17,0.));
#375=DIRECTION('',(-6.12303176911189E-17,-1.,0.));
#376=DIRECTION('',(1.,0.,0.));
#377=DIRECTION('',(0.,-1.,0.));
#378=DIRECTION('',(1.,-6.12303176911189E-17,0.));
#379=DIRECTION('',(6.12303176911189E-17,1.,0.));
#380=DIRECTION('',(-1.,0.,0.));
#381=DIRECTION('',(0.,1.,0.));
#382=DIRECTION('',(-1.,0.,0.));
#383=DIRECTION('',(0.,0.,1.));
#384=DIRECTION('',(-1.,0.,0.));
#385=DIRECTION('',(0.,1.,0.));
#386=DIRECTION('',(-1.,0.,0.));
#387=DIRECTION('',(0.,0.,1.));
#388=DIRECTION('',(-1.,0.,0.));
#389=DIRECTION('',(0.,0.,1.));
#390=DIRECTION('',(-1.,6.12303176911193E-17,0.));
#391=DIRECTION('',(-6.12303176911193E-17,-1.,0.));
#392=DIRECTION('',(-1.,6.12303176911193E-17,0.));
#393=DIRECTION('',(-6.12303176911193E-17,-1.,0.));
#394=DIRECTION('',(-1.,6.12303176911189E-17,0.));
#395=DIRECTION('',(-6.12303176911189E-17,-1.,0.));
#396=DIRECTION('',(-1.,6.12303176911189E-17,0.));
#397=DIRECTION('',(-6.12303176911189E-17,-1.,0.));
#398=DIRECTION('',(1.,-6.12303176911189E-17,0.));
#399=DIRECTION('',(6.12303176911189E-17,1.,0.));
#400=DIRECTION('',(1.,0.,0.));
#401=DIRECTION('',(0.,0.,-1.));
#402=DIRECTION('',(1.,0.,0.));
#403=DIRECTION('',(0.,0.,-1.));
#404=DIRECTION('',(1.,0.,0.));
#405=DIRECTION('',(0.,0.,-1.));
#406=DIRECTION('',(1.,0.,0.));
#407=DIRECTION('',(0.,-1.,0.));
#408=DIRECTION('',(1.,0.,0.));
#409=DIRECTION('',(0.,0.,-1.));
#410=DIRECTION('',(1.,0.,0.));
#411=DIRECTION('',(0.,0.,-1.));
#412=DIRECTION('',(1.,-6.12303176911193E-17,0.));
#413=DIRECTION('',(6.12303176911193E-17,1.,0.));
#414=DIRECTION('',(1.,-6.12303176911193E-17,0.));
#415=DIRECTION('',(6.12303176911193E-17,1.,0.));
#416=DIRECTION('',(1.,-6.12303176911189E-17,0.));
#417=DIRECTION('',(6.12303176911189E-17,1.,0.));
#418=DIRECTION('',(1.,0.,0.));
#419=DIRECTION('',(0.,-1.,0.));
#420=DIRECTION('',(1.,0.,0.));
#421=DIRECTION('',(0.,0.,-1.));
#422=DIRECTION('',(1.,0.,0.));
#423=DIRECTION('',(0.,-1.,0.));
#424=DIRECTION('',(-1.,6.12303176911189E-17,0.));
#425=DIRECTION('',(-6.12303176911189E-17,-1.,0.));
#426=DIRECTION('',(1.,0.,0.));
#427=DIRECTION('',(0.,0.,-1.));
#428=CARTESIAN_POINT('',(0.,0.,0.));
#429=CARTESIAN_POINT('',(4.175,0.,0.));
#430=CARTESIAN_POINT('',(-3.50458959031534,-1.07153055959458E-17,0.));
#431=CARTESIAN_POINT('',(-3.50458959031534,-2.525,0.));
#432=CARTESIAN_POINT('',(3.95,1.07153055959458E-17,0.));
#433=CARTESIAN_POINT('',(3.95,-2.525,0.));
#434=CARTESIAN_POINT('',(4.,1.07153055959458E-17,0.));
#435=CARTESIAN_POINT('',(4.,7.65378971138987E-18,0.));
#436=CARTESIAN_POINT('',(4.,-2.475,0.));
#437=CARTESIAN_POINT('',(4.,1.07153055959458E-17,0.));
#438=CARTESIAN_POINT('',(4.,0.675,0.));
#439=CARTESIAN_POINT('',(-3.50458959031534,-1.07153055959458E-17,0.));
#440=CARTESIAN_POINT('',(-3.50458959031534,-1.07153055959458E-17,0.));
#441=CARTESIAN_POINT('',(-3.50458959031534,-2.52,0.));
#442=CARTESIAN_POINT('',(3.975,1.22460635382238E-17,0.));
#443=CARTESIAN_POINT('',(3.975,1.22460635382238E-17,0.));
#444=CARTESIAN_POINT('',(3.975,0.675,0.));
#445=CARTESIAN_POINT('',(3.975,1.22460635382238E-17,0.));
#446=CARTESIAN_POINT('',(3.975,1.22460635382238E-17,0.));
#447=CARTESIAN_POINT('',(3.975,0.635,0.));
#448=CARTESIAN_POINT('',(29.4,-1.54453476375847E-15,0.));
#449=CARTESIAN_POINT('',(29.4,-1.52616566845114E-15,2.14306111918897E-18));
#450=CARTESIAN_POINT('',(29.4,-1.52616566845114E-15,0.335));
#451=CARTESIAN_POINT('',(29.1,-1.52616566845114E-15,0.));
#452=CARTESIAN_POINT('',(29.1,-1.52616566845114E-15,0.));
#453=CARTESIAN_POINT('',(29.1,-0.635000000000002,0.));
#454=CARTESIAN_POINT('',(29.575,-1.55525006935442E-15,0.));
#455=CARTESIAN_POINT('',(3.95,1.07153055959458E-17,0.));
#456=CARTESIAN_POINT('',(-4.35,1.07153055959458E-17,0.));
#457=CARTESIAN_POINT('',(-4.3,7.65378971138989E-18,0.));
#458=CARTESIAN_POINT('',(-4.3,7.65378971138989E-18,-2.52));
#459=CARTESIAN_POINT('',(-4.35,1.07153055959458E-17,0.));
#460=CARTESIAN_POINT('',(-4.35,7.65378971138989E-18,0.));
#461=CARTESIAN_POINT('',(-4.35,7.65378971138989E-18,-2.47));
#462=CARTESIAN_POINT('',(-4.35,2.66351881956367E-16,0.));
#463=CARTESIAN_POINT('',(-4.35,-0.675,0.));
#464=CARTESIAN_POINT('',(-28.9045895903153,1.51420062698599E-15,0.));
#465=CARTESIAN_POINT('',(-28.9045895903153,1.49583153167866E-15,-2.14306111918896E-18));
#466=CARTESIAN_POINT('',(-28.9045895903153,1.49583153167866E-15,-0.335));
#467=CARTESIAN_POINT('',(-28.6045895903153,1.49583153167866E-15,0.));
#468=CARTESIAN_POINT('',(-28.6045895903153,1.49583153167866E-15,0.));
#469=CARTESIAN_POINT('',(-28.6045895903153,0.635000000000002,0.));
#470=CARTESIAN_POINT('',(-29.575,1.55525006935442E-15,0.));
#471=CARTESIAN_POINT('',(-3.975,-1.22460635382238E-17,0.));
#472=CARTESIAN_POINT('',(-3.975,-0.635,0.));
#473=CARTESIAN_POINT('',(-3.975,2.43390512822197E-16,0.));
#474=CARTESIAN_POINT('',(-3.975,2.43390512822197E-16,0.));
#475=CARTESIAN_POINT('',(-3.975,-0.675,0.));
#476=CARTESIAN_POINT('',(-3.975,2.43390512822197E-16,0.));
#477=CARTESIAN_POINT('',(-4.3,7.65378971138989E-18,0.));
#478=MECHANICAL_DESIGN_GEOMETRIC_PRESENTATION_REPRESENTATION('',(#182,#183,
#184,#185,#186,#187,#188,#189,#190,#191,#192,#193,#194,#195,#196,#197,#198),
#479);
#479=(
GEOMETRIC_REPRESENTATION_CONTEXT(3)
GLOBAL_UNCERTAINTY_ASSIGNED_CONTEXT((#480))
GLOBAL_UNIT_ASSIGNED_CONTEXT((#483,#482,#481))
REPRESENTATION_CONTEXT('SB560','TOP_LEVEL_ASSEMBLY_PART')
);
#480=UNCERTAINTY_MEASURE_WITH_UNIT(LENGTH_MEASURE(0.005),#483,
'DISTANCE_ACCURACY_VALUE','Maximum Tolerance applied to model');
#481=(
NAMED_UNIT(*)
SI_UNIT($,.STERADIAN.)
SOLID_ANGLE_UNIT()
);
#482=(
NAMED_UNIT(*)
PLANE_ANGLE_UNIT()
SI_UNIT($,.RADIAN.)
);
#483=(
LENGTH_UNIT()
NAMED_UNIT(*)
SI_UNIT(.MILLI.,.METRE.)
);
#484=PRODUCT_DEFINITION_SHAPE('','',#485);
#485=PRODUCT_DEFINITION('','',#487,#486);
#486=PRODUCT_DEFINITION_CONTEXT('',#493,'design');
#487=PRODUCT_DEFINITION_FORMATION_WITH_SPECIFIED_SOURCE('','',#489,
 .NOT_KNOWN.);
#488=PRODUCT_RELATED_PRODUCT_CATEGORY('','',(#489));
#489=PRODUCT('SB560','SB560','SB560',(#491));
#490=PRODUCT_CATEGORY('','');
#491=PRODUCT_CONTEXT('',#493,'mechanical');
#492=APPLICATION_PROTOCOL_DEFINITION('international standard',
'automotive_design',2010,#493);
#493=APPLICATION_CONTEXT(
'core data for automotive mechanical design processes');
ENDSEC;
END-ISO-10303-21;
