PCBNEW-LibModule-V1  2023-07-20 18:22:26
# encoding utf-8
Units mm
$INDEX
DIOM5227X270N
$EndINDEX
$MODULE DIOM5227X270N
Po 0 0 0 15 64b96d52 00000000 ~~
Li DIOM5227X270N
Cd 2-Pin SMA T/R
Kw Schottky Diode
Sc 0
At SMD
AR 
Op 0 0 0
T0 0 0 1.27 1.27 0 0.254 N V 21 N "D**"
T1 0 0 1.27 1.27 0 0.254 N I 21 N "DIOM5227X270N"
DS -3.575 -1.725 3.575 -1.725 0.05 24
DS 3.575 -1.725 3.575 1.725 0.05 24
DS 3.575 1.725 -3.575 1.725 0.05 24
DS -3.575 1.725 -3.575 -1.725 0.05 24
DS -2.6 -1.362 2.6 -1.362 0.1 24
DS 2.6 -1.362 2.6 1.362 0.1 24
DS 2.6 1.362 -2.6 1.362 0.1 24
DS -2.6 1.362 -2.6 -1.362 0.1 24
DS -2.6 -0.588 -1.825 -1.362 0.1 24
DS 2.6 -1.362 -2.925 -1.362 0.2 21
DS -2.6 1.362 2.6 1.362 0.2 21
$PAD
Po -2.15 0
Sh "1" R 1.55 2.35 0 0 900
At SMD N 00888000
Ne 0 ""
$EndPAD
$PAD
Po 2.15 0
Sh "2" R 1.55 2.35 0 0 900
At SMD N 00888000
Ne 0 ""
$EndPAD
$EndMODULE DIOM5227X270N
$EndLIBRARY
