PCBNEW-LibModule-V1  2023-07-20 17:23:18
# encoding utf-8
Units mm
$INDEX
HC49SSDLF800MHz
$EndINDEX
$MODULE HC49SSDLF800MHz
Po 0 0 0 15 64b95f76 00000000 ~~
Li HC49SSDLF800MHz
Cd HC49SSDLF-8.00MHz-2
Kw Crystal or Oscillator
Sc 0
At SMD
AR 
Op 0 0 0
T0 0.000 -0 1.27 1.27 0 0.254 N V 21 N "Y**"
T1 0.000 -0 1.27 1.27 0 0.254 N I 21 N "HC49SSDLF800MHz"
DS -5.85 -2.5 5.85 -2.5 0.1 24
DS 5.85 -2.5 5.85 2.5 0.1 24
DS 5.85 2.5 -5.85 2.5 0.1 24
DS -5.85 2.5 -5.85 -2.5 0.1 24
DS -8.5 -3.5 8.5 -3.5 0.1 24
DS 8.5 -3.5 8.5 3.5 0.1 24
DS 8.5 3.5 -8.5 3.5 0.1 24
DS -8.5 3.5 -8.5 -3.5 0.1 24
DS -5.85 -2.5 5.85 -2.5 0.2 21
DS -5.85 2.5 5.85 2.5 0.2 21
$PAD
Po -4.750 -0
Sh "1" R 2.000 5.500 0 0 900
At SMD N 00888000
Ne 0 ""
$EndPAD
$PAD
Po 4.750 -0
Sh "2" R 2.000 5.500 0 0 900
At SMD N 00888000
Ne 0 ""
$EndPAD
$EndMODULE HC49SSDLF800MHz
$EndLIBRARY
