PCBNEW-LibModule-V1  2023-07-26 16:56:43
# encoding utf-8
Units mm
$INDEX
B72210S0271K101
$EndINDEX
$MODULE B72210S0271K101
Po 0 0 0 15 64c1423b 00000000 ~~
Li B72210S0271K101
Cd B72210S0271K101-2
Kw Varistor
Sc 0
At STD
AR 
Op 0 0 0
T0 3.750 0.9 1.27 1.27 0 0.254 N V 21 N "RV**"
T1 3.750 0.9 1.27 1.27 0 0.254 N I 21 N "B72210S0271K101"
DS -2.25 -1.6 9.75 -1.6 0.1 24
DS 9.75 -1.6 9.75 3.4 0.1 24
DS 9.75 3.4 -2.25 3.4 0.1 24
DS -2.25 3.4 -2.25 -1.6 0.1 24
DS -2.25 -1.6 9.75 -1.6 0.2 21
DS 9.75 -1.6 9.75 3.4 0.2 21
DS 9.75 3.4 -2.25 3.4 0.2 21
DS -2.25 3.4 -2.25 -1.6 0.2 21
DS -3.25 -2.6 10.75 -2.6 0.1 24
DS 10.75 -2.6 10.75 4.4 0.1 24
DS 10.75 4.4 -3.25 4.4 0.1 24
DS -3.25 4.4 -3.25 -2.6 0.1 24
DS -2.7 -0 -2.7 -0 0.1 21
DS -2.8 -0 -2.8 -0 0.1 21
DA -2.75 -0 -2.700 -0 -1800 0.1 21
DA -2.75 -0 -2.800 -0 -1800 0.1 21
$PAD
Po 0.000 -0
Sh "1" R 1.500 1.500 0 0 900
Dr 1 0 0
At STD N 00E0FFFF
Ne 0 ""
$EndPAD
$PAD
Po 7.500 1.8
Sh "2" C 1.500 1.500 0 0 900
Dr 1 0 0
At STD N 00E0FFFF
Ne 0 ""
$EndPAD
$EndMODULE B72210S0271K101
$EndLIBRARY
