PCBNEW-LibModule-V1  2023-07-18 18:41:55
# encoding utf-8
Units mm
$INDEX
QFP80P900X900X120-32N
$EndINDEX
$MODULE QFP80P900X900X120-32N
Po 0 0 0 15 64b6cee3 00000000 ~~
Li QFP80P900X900X120-32N
Cd 32A_2020
Kw Integrated Circuit
Sc 0
At SMD
AR 
Op 0 0 0
T0 0 0 1.27 1.27 0 0.254 N V 21 N "IC**"
T1 0 0 1.27 1.27 0 0.254 N I 21 N "QFP80P900X900X120-32N"
DS -5.25 -5.25 5.25 -5.25 0.05 24
DS 5.25 -5.25 5.25 5.25 0.05 24
DS 5.25 5.25 -5.25 5.25 0.05 24
DS -5.25 5.25 -5.25 -5.25 0.05 24
DS -3.5 -3.5 3.5 -3.5 0.1 24
DS 3.5 -3.5 3.5 3.5 0.1 24
DS 3.5 3.5 -3.5 3.5 0.1 24
DS -3.5 3.5 -3.5 -3.5 0.1 24
DS -3.5 -2.7 -2.7 -3.5 0.1 24
DS -3.15 -3.15 3.15 -3.15 0.2 21
DS 3.15 -3.15 3.15 3.15 0.2 21
DS 3.15 3.15 -3.15 3.15 0.2 21
DS -3.15 3.15 -3.15 -3.15 0.2 21
DC -4.6 -4 -4.8 -4 0.254 21
$PAD
Po -4.25 -2.8
Sh "1" R 0.6 1.5 0 0 900
At SMD N 00888000
Ne 0 ""
$EndPAD
$PAD
Po -4.25 -2
Sh "2" R 0.6 1.5 0 0 900
At SMD N 00888000
Ne 0 ""
$EndPAD
$PAD
Po -4.25 -1.2
Sh "3" R 0.6 1.5 0 0 900
At SMD N 00888000
Ne 0 ""
$EndPAD
$PAD
Po -4.25 -0.4
Sh "4" R 0.6 1.5 0 0 900
At SMD N 00888000
Ne 0 ""
$EndPAD
$PAD
Po -4.25 0.4
Sh "5" R 0.6 1.5 0 0 900
At SMD N 00888000
Ne 0 ""
$EndPAD
$PAD
Po -4.25 1.2
Sh "6" R 0.6 1.5 0 0 900
At SMD N 00888000
Ne 0 ""
$EndPAD
$PAD
Po -4.25 2
Sh "7" R 0.6 1.5 0 0 900
At SMD N 00888000
Ne 0 ""
$EndPAD
$PAD
Po -4.25 2.8
Sh "8" R 0.6 1.5 0 0 900
At SMD N 00888000
Ne 0 ""
$EndPAD
$PAD
Po -2.8 4.25
Sh "9" R 0.6 1.5 0 0 0
At SMD N 00888000
Ne 0 ""
$EndPAD
$PAD
Po -2 4.25
Sh "10" R 0.6 1.5 0 0 0
At SMD N 00888000
Ne 0 ""
$EndPAD
$PAD
Po -1.2 4.25
Sh "11" R 0.6 1.5 0 0 0
At SMD N 00888000
Ne 0 ""
$EndPAD
$PAD
Po -0.4 4.25
Sh "12" R 0.6 1.5 0 0 0
At SMD N 00888000
Ne 0 ""
$EndPAD
$PAD
Po 0.4 4.25
Sh "13" R 0.6 1.5 0 0 0
At SMD N 00888000
Ne 0 ""
$EndPAD
$PAD
Po 1.2 4.25
Sh "14" R 0.6 1.5 0 0 0
At SMD N 00888000
Ne 0 ""
$EndPAD
$PAD
Po 2 4.25
Sh "15" R 0.6 1.5 0 0 0
At SMD N 00888000
Ne 0 ""
$EndPAD
$PAD
Po 2.8 4.25
Sh "16" R 0.6 1.5 0 0 0
At SMD N 00888000
Ne 0 ""
$EndPAD
$PAD
Po 4.25 2.8
Sh "17" R 0.6 1.5 0 0 900
At SMD N 00888000
Ne 0 ""
$EndPAD
$PAD
Po 4.25 2
Sh "18" R 0.6 1.5 0 0 900
At SMD N 00888000
Ne 0 ""
$EndPAD
$PAD
Po 4.25 1.2
Sh "19" R 0.6 1.5 0 0 900
At SMD N 00888000
Ne 0 ""
$EndPAD
$PAD
Po 4.25 0.4
Sh "20" R 0.6 1.5 0 0 900
At SMD N 00888000
Ne 0 ""
$EndPAD
$PAD
Po 4.25 -0.4
Sh "21" R 0.6 1.5 0 0 900
At SMD N 00888000
Ne 0 ""
$EndPAD
$PAD
Po 4.25 -1.2
Sh "22" R 0.6 1.5 0 0 900
At SMD N 00888000
Ne 0 ""
$EndPAD
$PAD
Po 4.25 -2
Sh "23" R 0.6 1.5 0 0 900
At SMD N 00888000
Ne 0 ""
$EndPAD
$PAD
Po 4.25 -2.8
Sh "24" R 0.6 1.5 0 0 900
At SMD N 00888000
Ne 0 ""
$EndPAD
$PAD
Po 2.8 -4.25
Sh "25" R 0.6 1.5 0 0 0
At SMD N 00888000
Ne 0 ""
$EndPAD
$PAD
Po 2 -4.25
Sh "26" R 0.6 1.5 0 0 0
At SMD N 00888000
Ne 0 ""
$EndPAD
$PAD
Po 1.2 -4.25
Sh "27" R 0.6 1.5 0 0 0
At SMD N 00888000
Ne 0 ""
$EndPAD
$PAD
Po 0.4 -4.25
Sh "28" R 0.6 1.5 0 0 0
At SMD N 00888000
Ne 0 ""
$EndPAD
$PAD
Po -0.4 -4.25
Sh "29" R 0.6 1.5 0 0 0
At SMD N 00888000
Ne 0 ""
$EndPAD
$PAD
Po -1.2 -4.25
Sh "30" R 0.6 1.5 0 0 0
At SMD N 00888000
Ne 0 ""
$EndPAD
$PAD
Po -2 -4.25
Sh "31" R 0.6 1.5 0 0 0
At SMD N 00888000
Ne 0 ""
$EndPAD
$PAD
Po -2.8 -4.25
Sh "32" R 0.6 1.5 0 0 0
At SMD N 00888000
Ne 0 ""
$EndPAD
$EndMODULE QFP80P900X900X120-32N
$EndLIBRARY
