PCBNEW-LibModule-V1  2024-06-24 17:52:51
# encoding utf-8
Units mm
$INDEX
DIOAD2910W165L750D540
$EndINDEX
$MODULE DIOAD2910W165L750D540
Po 0 0 0 15 6679b273 00000000 ~~
Li DIOAD2910W165L750D540
Cd SB560
Kw Zener Diode
Sc 0
At STD
AR 
Op 0 0 0
T0 0 0 1.27 1.27 0 0.254 N V 21 N "Z**"
T1 0 0 1.27 1.27 0 0.254 N I 21 N "DIOAD2910W165L750D540"
DS -1.638 -3.05 30.737 -3.05 0.05 24
DS 30.737 -3.05 30.737 3.05 0.05 24
DS 30.737 3.05 -1.638 3.05 0.05 24
DS -1.638 3.05 -1.638 -3.05 0.05 24
DS 10.8 -2.7 18.3 -2.7 0.1 24
DS 18.3 -2.7 18.3 2.7 0.1 24
DS 18.3 2.7 10.8 2.7 0.1 24
DS 10.8 2.7 10.8 -2.7 0.1 24
DS 10.8 0 13.5 -2.7 0.1 24
DS 0 0 10.8 0 0.1 24
DS 18.3 0 29.1 0 0.1 24
DS 10.8 -2.7 18.3 -2.7 0.2 21
DS 18.3 -2.7 18.3 2.7 0.2 21
DS 18.3 2.7 10.8 2.7 0.2 21
DS 10.8 2.7 10.8 -2.7 0.2 21
DS 10.8 0 13.5 -2.7 0.2 21
DS 1.738 0 10.8 0 0.2 21
DS 18.3 0 27.362 0 0.2 21
$PAD
Po 0 0
Sh "1" R 2.775 2.775 0 0 900
Dr 1.85 0 0
At STD N 00E0FFFF
Ne 0 ""
$EndPAD
$PAD
Po 29.1 0
Sh "2" C 2.775 2.775 0 0 900
Dr 1.85 0 0
At STD N 00E0FFFF
Ne 0 ""
$EndPAD
$EndMODULE DIOAD2910W165L750D540
$EndLIBRARY
