PCBNEW-LibModule-V1  2023-06-22 11:49:15
# encoding utf-8
Units mm
$INDEX
SHDR2W99P0X254_1X2_493X635X818P
$EndINDEX
$MODULE SHDR2W99P0X254_1X2_493X635X818P
Po 0 0 0 15 6494272b 00000000 ~~
Li SHDR2W99P0X254_1X2_493X635X818P
Cd 171856-0002
Kw Connector
Sc 0
At STD
AR 
Op 0 0 0
T0 0 0 1.27 1.27 0 0.254 N V 21 N "J**"
T1 0 0 1.27 1.27 0 0.254 N I 21 N "SHDR2W99P0X254_1X2_493X635X818P"
DS -1.44 3.35 -1.44 -3.5 0.05 24
DS -1.44 -3.5 4.1 -3.5 0.05 24
DS 4.1 -3.5 4.1 3.35 0.05 24
DS 4.1 3.35 -1.44 3.35 0.05 24
DS -1.19 3.1 -1.19 -3.25 0.1 24
DS -1.19 -3.25 3.74 -3.25 0.1 24
DS 3.74 -3.25 3.74 3.1 0.1 24
DS 3.74 3.1 -1.19 3.1 0.1 24
DS 0 3.1 3.85 3.1 0.2 21
DS 3.85 3.1 3.85 -3.25 0.2 21
DS 3.85 -3.25 -1.19 -3.25 0.2 21
DS -1.19 -3.25 -1.19 0 0.2 21
$PAD
Po 0 0
Sh "1" R 1.8 1.8 0 0 900
Dr 1.2 0 0
At STD N 00E0FFFF
Ne 0 ""
$EndPAD
$PAD
Po 2.54 0
Sh "2" C 1.8 1.8 0 0 900
Dr 1.2 0 0
At STD N 00E0FFFF
Ne 0 ""
$EndPAD
$EndMODULE SHDR2W99P0X254_1X2_493X635X818P
$EndLIBRARY
