!PADS-POWERPCB-V9.5-METRIC! DESIGN DATABASE ASCII FILE 1.0
*PARTDECAL*  ITEMS

ECS160205PVX M 0 0 5 2 1 0 2
CLOSED 5 0.1 0 27
-6.200 -2.400
6.200 -2.400
6.200 2.400
-6.200 2.400
-6.200 -2.400
CLOSED 5 0.1 0 20
-8.500 3.400
8.500 3.400
8.500 -3.400
-8.500 -3.400
-8.500 3.400
OPEN 4 0.2 0 26
-6.200 1.500
-6.200 2.400
6.200 2.400
6.200 1.500
OPEN 4 0.2 0 26
6.200 -1.500
6.200 -2.400
-6.200 -2.400
-6.200 -1.500
OPEN 6 0.2 0 26
-8.100 0.000
-8.100 0.000 1800 1800 -8.100 -0.050 -8.000 0.050
-8.000 0.000
-8.000 0.000 0 1800 -8.100 -0.050 -8.000 0.050
-8.100 0.000
-8.000 0.000
VALUE -0.000 0.000 0 1 1.27 0.127 N LEFT DOWN
Regular <Romansim Stroke Font>
Ref.Des.
VALUE -0.000 0.000 0 1 1.27 0.127 N LEFT UP
Regular <Romansim Stroke Font>
Part Type
T-4.750 0.000 -4.750 0.000 1
T4.750 0.000 4.750 0.000 2
PAD 0 3
-2 2.000 RF 0.000 5.500 0.000 0 0 N
-1 0 R
0 0 R

*END*     OF ASCII OUTPUT FILE
