PCBNEW-LibModule-V1  2023-09-20 16:58:21
# encoding utf-8
Units mm
$INDEX
EEE1AA220WR
$EndINDEX
$MODULE EEE1AA220WR
Po 0 0 0 15 650b169d 00000000 ~~
Li EEE1AA220WR
Cd SMD_Lytic_B
Kw Capacitor Polarised
Sc 0
At SMD
AR 
Op 0 0 0
T0 -0.350 -0 1.27 1.27 0 0.254 N V 21 N "C**"
T1 -0.350 -0 1.27 1.27 0 0.254 N I 21 N "EEE1AA220WR"
DS -4.5 -3.15 3.8 -3.15 0.05 24
DS 3.8 -3.15 3.8 3.15 0.05 24
DS 3.8 3.15 -4.5 3.15 0.05 24
DS -4.5 3.15 -4.5 -3.15 0.05 24
DS -3.625 -0 -3.625 -0 0.05 21
DS -3.575 -0 -3.575 -0 0.05 21
DS -2.15 -1 -1 -2.15 0.1 24
DS -1 -2.15 2.15 -2.15 0.1 24
DS 2.15 -2.15 2.15 2.15 0.1 24
DS 2.15 2.15 -1 2.15 0.1 24
DS -1 2.15 -2.15 1 0.1 24
DS -2.15 1 -2.15 -1 0.1 24
DS -2.15 -1 -1 -2.15 0.1 24
DS -1 -2.15 2.15 -2.15 0.2 21
DS 2.15 -2.15 2.15 -1.5 0.2 21
DS -1 2.15 2.15 2.15 0.2 21
DS 2.15 2.15 2.15 1.5 0.2 21
DS 2.15 -1.5 2.15 -2.15 0.2 21
DS 2.15 -2.15 -1 -2.15 0.2 21
DA -3.6 -0 -3.625 -0 -1800 0.05 21
DA -3.6 -0 -3.575 -0 -1800 0.05 21
$PAD
Po -1.750 -0
Sh "1" R 1.600 2.500 0 0 900
At SMD N 00888000
Ne 0 ""
$EndPAD
$PAD
Po 1.750 -0
Sh "2" R 1.600 2.500 0 0 900
At SMD N 00888000
Ne 0 ""
$EndPAD
$EndMODULE EEE1AA220WR
$EndLIBRARY
