!PADS-POWERPCB-V9.5-METRIC! DESIGN DATABASE ASCII FILE 1.0
*PARTDECAL*  ITEMS

B72210S0271K101 M 0 0 4 2 2 0 2
CLOSED 5 0.1 0 27
-2.250 1.600
9.750 1.600
9.750 -3.400
-2.250 -3.400
-2.250 1.600
CLOSED 5 0.2 0 26
-2.250 1.600
9.750 1.600
9.750 -3.400
-2.250 -3.400
-2.250 1.600
CLOSED 5 0.1 0 20
-3.250 2.600
10.750 2.600
10.750 -4.400
-3.250 -4.400
-3.250 2.600
CLOSED 5 0.1 0 26
-2.700 0.000
-2.700 0.000 0 1800 -2.800 -0.050 -2.700 0.050
-2.800 0.000
-2.800 0.000 -1800 1800 -2.800 -0.050 -2.700 0.050
-2.700 0.000
VALUE 3.750 -0.900 0 1 1.27 0.127 N LEFT DOWN
Regular <Romansim Stroke Font>
Ref.Des.
VALUE 3.750 -0.900 0 1 1.27 0.127 N LEFT UP
Regular <Romansim Stroke Font>
Part Type
T0.000 0.000 0.000 0.000 1
T7.500 -1.800 7.500 -1.800 2
PAD 0 3
-2 1.500 S 0.000 1
-1 1.500 S 0.000
0 1.500 S 0.000
PAD 2 3
-2 1.500 R 1
-1 1.500 R
0 1.500 R

*END*     OF ASCII OUTPUT FILE
