<?xml version="1.0" encoding="utf-8"?>
<!--/245208/1129843/2.50/4/4/Integrated Circuit/-->
<!DOCTYPE curve SYSTEM "eagle.dtd">
<eagle version="7.7.0">
<drawing>
<settings>
<setting alwaysvectorfont="no"/>
<setting verticaltext="up"/>
</settings>
<grid distance="0.1" unitdist="inch" unit="inch" style="lines" multiple="1" display="no" altdistance="0.01" altunitdist="inch" altunit="inch"/>
<layers>
<layer number="1" name="Top" color="4" fill="1" visible="yes" active="yes"/>
<layer number="16" name="Bottom" color="1" fill="1" visible="yes" active="yes"/>
<layer number="17" name="Pads" color="2" fill="1" visible="yes" active="yes"/>
<layer number="18" name="Vias" color="2" fill="1" visible="yes" active="yes"/>
<layer number="19" name="Unrouted" color="6" fill="1" visible="yes" active="yes"/>
<layer number="20" name="Dimension" color="15" fill="1" visible="yes" active="yes"/>
<layer number="21" name="tPlace" color="7" fill="1" visible="yes" active="yes"/>
<layer number="22" name="bPlace" color="7" fill="1" visible="yes" active="yes"/>
<layer number="23" name="tOrigins" color="15" fill="1" visible="yes" active="yes"/>
<layer number="24" name="bOrigins" color="15" fill="1" visible="yes" active="yes"/>
<layer number="25" name="tNames" color="7" fill="1" visible="yes" active="yes"/>
<layer number="26" name="bNames" color="7" fill="1" visible="yes" active="yes"/>
<layer number="27" name="tValues" color="7" fill="1" visible="yes" active="yes"/>
<layer number="28" name="bValues" color="7" fill="1" visible="yes" active="yes"/>
<layer number="29" name="tStop" color="7" fill="3" visible="no" active="yes"/>
<layer number="30" name="bStop" color="7" fill="6" visible="no" active="yes"/>
<layer number="31" name="tCream" color="7" fill="4" visible="no" active="yes"/>
<layer number="32" name="bCream" color="7" fill="5" visible="no" active="yes"/>
<layer number="33" name="tFinish" color="6" fill="3" visible="no" active="yes"/>
<layer number="34" name="bFinish" color="6" fill="6" visible="no" active="yes"/>
<layer number="35" name="tGlue" color="7" fill="4" visible="no" active="yes"/>
<layer number="36" name="bGlue" color="7" fill="5" visible="no" active="yes"/>
<layer number="37" name="tTest" color="7" fill="1" visible="no" active="yes"/>
<layer number="38" name="bTest" color="7" fill="1" visible="no" active="yes"/>
<layer number="39" name="tKeepout" color="4" fill="11" visible="yes" active="yes"/>
<layer number="40" name="bKeepout" color="1" fill="11" visible="yes" active="yes"/>
<layer number="41" name="tRestrict" color="4" fill="10" visible="yes" active="yes"/>
<layer number="42" name="bRestrict" color="1" fill="10" visible="yes" active="yes"/>
<layer number="43" name="vRestrict" color="2" fill="10" visible="yes" active="yes"/>
<layer number="44" name="Drills" color="7" fill="1" visible="no" active="yes"/>
<layer number="45" name="Holes" color="7" fill="1" visible="no" active="yes"/>
<layer number="46" name="Milling" color="3" fill="1" visible="no" active="yes"/>
<layer number="47" name="Measures" color="7" fill="1" visible="no" active="yes"/>
<layer number="48" name="Document" color="7" fill="1" visible="yes" active="yes"/>
<layer number="49" name="Reference" color="7" fill="1" visible="yes" active="yes"/>
<layer number="51" name="tDocu" color="7" fill="1" visible="yes" active="yes"/>
<layer number="52" name="bDocu" color="7" fill="1" visible="yes" active="yes"/>
<layer number="90" name="Modules" color="5" fill="1" visible="yes" active="yes"/>
<layer number="91" name="Nets" color="2" fill="1" visible="yes" active="yes"/>
<layer number="92" name="Busses" color="1" fill="1" visible="yes" active="yes"/>
<layer number="93" name="Pins" color="2" fill="1" visible="no" active="yes"/>
<layer number="94" name="Symbols" color="4" fill="1" visible="yes" active="yes"/>
<layer number="95" name="Names" color="7" fill="1" visible="yes" active="yes"/>
<layer number="96" name="Values" color="7" fill="1" visible="yes" active="yes"/>
<layer number="97" name="Info" color="7" fill="1" visible="yes" active="yes"/>
<layer number="98" name="Guide" color="6" fill="1" visible="yes" active="yes"/>
</layers>
<library>
<description>&lt;Photointerrupter Reflective Phototransi Vishay TCRT5000L PCB Through Hole Reflective Optical Sensor, Transistor Output 2, Leaded Package&lt;/b&gt;&lt;p&gt;
&lt;author&gt;Created by SamacSys&lt;/author&gt;</description>
<packages>
<package name="TCRT5000L">
<description>&lt;b&gt;TCRT5000L&lt;/b&gt;&lt;br&gt;
</description>
<pad name="1" x="-2.75" y="1.27" drill="1" diameter="1.55"/>
<pad name="2" x="-2.75" y="-1.27" drill="1" diameter="1.55"/>
<pad name="3" x="2.75" y="-1.27" drill="1" diameter="1.55"/>
<pad name="4" x="2.75" y="1.27" drill="1" diameter="1.55"/>
<hole x="0" y="1.9" drill="2.5"/>
<hole x="0" y="-1.9" drill="2.5"/>
<hole x="-4.65" y="-2.45" drill="1"/>
<text x="-0.432" y="0.015" align="center" size="1.27" layer="25" rot="R0" >&gt;NAME</text>
<text x="-0.432" y="0.015" align="center" size="1.27" layer="27" rot="R0" >&gt;VALUE</text>
<wire x1="-5.1" y1="2.9" x2="5.1" y2="2.9" width="0.2" layer="51"/>
<wire x1="5.1" y1="2.9" x2="5.1" y2="-2.9" width="0.2" layer="51"/>
<wire x1="5.1" y1="-2.9" x2="-5.1" y2="-2.9" width="0.2" layer="51"/>
<wire x1="-5.1" y1="-2.9" x2="-5.1" y2="2.9" width="0.2" layer="51"/>
<wire x1="5.1" y1="-2.9" x2="5.1" y2="2.9" width="0.2" layer="21"/>
<wire x1="5.1" y1="2.9" x2="1.5" y2="2.9" width="0.2" layer="21"/>
<wire x1="5.1" y1="-2.9" x2="1.5" y2="-2.9" width="0.2" layer="21"/>
<wire x1="-5.1" y1="2.9" x2="-1.5" y2="2.9" width="0.2" layer="21"/>
<circle x="-2.79" y="3.492" radius="0.058" width="0.2" layer="25"/>
</package>
</packages>
<symbols>
<symbol name="TCRT5000L">
<wire x1="5.08" y1="2.54" x2="33.02" y2="2.54" width="0.254" layer="94"/>
<wire x1="33.02" y1="-5.08" x2="33.02" y2="2.54" width="0.254" layer="94"/>
<wire x1="33.02" y1="-5.08" x2="5.08" y2="-5.08" width="0.254" layer="94"/>
<wire x1="5.08" y1="2.54" x2="5.08" y2="-5.08" width="0.254" layer="94"/>
<text x="34.29" y="7.62" align="center-left" size="1.778" layer="95">&gt;NAME</text>
<text x="34.29" y="5.08" align="center-left" size="1.778" layer="96">&gt;VALUE</text>
<pin name="COLLECTOR" x="0" y="0" length="middle" direction="io" rot="R0"/>
<pin name="EMITTER" x="0" y="-2.54" length="middle" direction="io" rot="R0"/>
<pin name="CATHODE" x="38.1" y="-2.54" length="middle" direction="io" rot="R180"/>
<pin name="ANODE" x="38.1" y="0" length="middle" direction="io" rot="R180"/>
</symbol>
</symbols>
<devicesets>
<deviceset name="TCRT5000L" prefix="IC">
<description>&lt;b&gt;Photointerrupter Reflective Phototransi Vishay TCRT5000L PCB Through Hole Reflective Optical Sensor, Transistor Output 2, Leaded Package&lt;/b&gt;&lt;p&gt;
Source: &lt;a href="https://datasheet.datasheetarchive.com/originals/distributors/Datasheets-310/86882.pdf"&gt; Datasheet &lt;/a&gt;</description>
<gates>
<gate name="G$1" symbol="TCRT5000L" x="0" y="0"/>
</gates>
<devices>
<device name="" package="TCRT5000L">
<connects>
<connect gate="G$1" pin="COLLECTOR" pad="1"/>
<connect gate="G$1" pin="EMITTER" pad="2"/>
<connect gate="G$1" pin="CATHODE" pad="3"/>
<connect gate="G$1" pin="ANODE" pad="4"/>
</connects>
<technologies>
<technology name="">
<attribute name="Mouser_Part_Number" value="782-TCRT5000L" constant="no"/>
<attribute name="Mouser_Price-Stock" value="https://www.mouser.co.uk/ProductDetail/Vishay-Semiconductors/TCRT5000L?qs=%2Fjqivxn91cdBAizhsWilRQ%3D%3D" constant="no"/>
<attribute name="Manufacturer_Name" value="Vishay" constant="no"/>
<attribute name="Manufacturer_Part_Number" value="TCRT5000L" constant="no"/>
<attribute name="Description" value="Photointerrupter Reflective Phototransi Vishay TCRT5000L PCB Through Hole Reflective Optical Sensor, Transistor Output 2, Leaded Package" constant="no"/>
<attribute name="Height" value="mm" constant="no"/>
</technology>
</technologies>
</device>
</devices>
</deviceset>
</devicesets>
</library>
</drawing>
</eagle>
