PCBNEW-LibModule-V1  2023-06-21 14:05:07
# encoding utf-8
Units mm
$INDEX
SHDR2W70P0X200_1X2_600X470X635P
$EndINDEX
$MODULE SHDR2W70P0X200_1X2_600X470X635P
Po 0 0 0 15 6492f583 00000000 ~~
Li SHDR2W70P0X200_1X2_600X470X635P
Cd 440054-2
Kw Connector
Sc 0
At STD
AR 
Op 0 0 0
T0 0 0 1.27 1.27 0 0.254 N V 21 N "J**"
T1 0 0 1.27 1.27 0 0.254 N I 21 N "SHDR2W70P0X200_1X2_600X470X635P"
DS 2.55 2.2 -4.25 2.2 0.05 24
DS -4.25 2.2 -4.25 -3.3 0.05 24
DS -4.25 -3.3 2.55 -3.3 0.05 24
DS 2.55 -3.3 2.55 2.2 0.05 24
DS 2.3 1.95 -4 1.95 0.1 24
DS -4 1.95 -4 -3.05 0.1 24
DS -4 -3.05 2.3 -3.05 0.1 24
DS 2.3 -3.05 2.3 1.95 0.1 24
DS 0 1.95 -4 1.95 0.2 21
DS -4 1.95 -4 -3.05 0.2 21
DS -4 -3.05 2.3 -3.05 0.2 21
DS 2.3 -3.05 2.3 0 0.2 21
$PAD
Po 0 0
Sh "1" R 1.35 1.35 0 0 900
Dr 0.9 0 0
At STD N 00E0FFFF
Ne 0 ""
$EndPAD
$PAD
Po -2 0
Sh "2" C 1.35 1.35 0 0 900
Dr 0.9 0 0
At STD N 00E0FFFF
Ne 0 ""
$EndPAD
$EndMODULE SHDR2W70P0X200_1X2_600X470X635P
$EndLIBRARY
