!PADS-POWERPCB-V9.5-METRIC! DESIGN DATABASE ASCII FILE 1.0
*PARTDECAL*  ITEMS

CAPAE430X550N M 0 0 4 2 1 0 2
CLOSED 5 0.05 0 20
-3.625 2.75
3.625 2.75
3.625 -2.75
-3.625 -2.75
-3.625 2.75
CLOSED 7 0.1 0 27
2.15 2.15
-1.075 2.15
-2.15 1.075
-2.15 -1.075
-1.075 -2.15
2.15 -2.15
2.15 2.15
OPEN 2 0.2 0 26
-3.125 2.15
2.15 2.15
OPEN 2 0.2 0 26
-1.075 -2.15
2.15 -2.15
VALUE 0 0 0 1 1.27 0.127 N LEFT DOWN
Regular <Romansim Stroke Font>
Ref.Des.
VALUE 0 0 0 1 1.27 0.127 N LEFT UP
Regular <Romansim Stroke Font>
Part Type
T-1.75 0 -1.75 0 1
T1.75 0 1.75 0 2
PAD 0 3
-2 1.85 RF 0 2.75 0 0 0 N
-1 0 R
0 0 R

*END*     OF ASCII OUTPUT FILE
